{
	"ArmyTag": {
		"0": "ArmyTag_None",
		"1": "ArmyTag_Spear",
		"2": "ArmyTag_Walk",
		"3": "ArmyTag_Ride",
		"4": "ArmyTag_Fly",
		"5": "ArmyTag_Water",
		"6": "ArmyTag_Bow",
		"7": "ArmyTag_Magic",
		"8": "ArmyTag_Monk",
		"9": "ArmyTag_Demon",
		"10": "ArmyTag_Death",
		"11": "ArmyTag_Boss",
		"12": "ArmyTag_PuppetWalk",
		"13": "ArmyTag_PuppetSpear",
		"14": "ArmyTag_PuppetRide",
		"15": "ArmyTag_PuppetDemon",
		"16": "ArmyTag_WaterBeast",
		"17": "ArmyTag_Assassin",
		"18": "ArmyTag_AnikiWalk",
		"19": "ArmyTag_AnikiSpear",
		"20": "ArmyTag_AnikiRide",
		"21": "ArmyTag_AnikiFly",
		"22": "ArmyTag_AnikiBow",
		"23": "ArmyTag_AnikiDemon",
		"24": "ArmyTag_Boss1",
		"25": "ArmyTag_Boss2",
		"26": "ArmyTag_Boss3",
		"27": "ArmyTag_Boss4",
		"28": "ArmyTag_Boss5",
		"29": "ArmyTag_Boss6",
		"30": "ArmyTag_Boss7",
		"31": "ArmyTag_Boss8",
		"32": "ArmyTag_Boss9",
		"33": "ArmyTag_Boss10",
		"34": "ArmyTag_Count"
	},
	"BattleAchievementConditionType": {
		"0": "BattleAchievementConditionType_None",
		"1": "BattleAchievementConditionType_ActorNotDead",
		"2": "BattleAchievementConditionType_KillActor",
		"3": "BattleAchievementConditionType_TurnCount",
		"4": "BattleAchievementConditionType_SkillKillActor",
		"5": "BattleAchievementConditionType_ActorCount",
		"6": "BattleAchievementConditionType_Dialog",
		"7": "BattleAchievementConditionType_ActorReachPosition",
		"8": "BattleAchievementConditionType_ActorNotReachPosition",
		"9": "BattleAchievementConditionType_ActorNotDamage",
		"10": "BattleAchievementConditionType_KillCount",
		"11": "BattleAchievementConditionType_ActorHpLess",
		"12": "BattleAchievementConditionType_PlayerDieLess",
		"13": "BattleAchievementConditionType_NpcDieLess"
	},
	"BattleArmyRandomRuleType": {
		"0": "BattleArmyRandomRuleType_None",
		"1": "BattleArmyRandomRuleType_EveryTime",
		"2": "BattleArmyRandomRuleType_DailyTime",
		"3": "BattleArmyRandomRuleType_ClimbTower"
	},
	"BattleEventActionType": {
		"0": "BattleEventActionType_None",
		"1": "BattleEventActionType_Relief",
		"2": "BattleEventActionType_Retreat",
		"3": "BattleEventActionType_Dialog",
		"4": "BattleEventActionType_ChangeTeam",
		"5": "BattleEventActionType_AttachBuff",
		"6": "BattleEventActionType_Music",
		"7": "BattleEventActionType_ChangeTerrain",
		"8": "BattleEventActionType_Perform",
		"9": "BattleEventActionType_ChangeBehavior",
		"10": "BattleEventActionType_RetreatPosition",
		"11": "BattleEventActionType_Replace",
		"12": "BattleEventActionType_RemoveBuff",
		"13": "BattleEventActionType_AttachBuffPosition"
	},
	"BattleEventTriggerType": {
		"0": "BattleEventTriggerType_None",
		"1": "BattleEventTriggerType_TurnCount",
		"2": "BattleEventTriggerType_ActorDie",
		"3": "BattleEventTriggerType_ActorNeighbor",
		"4": "BattleEventTriggerType_ActorReachPosition",
		"5": "BattleEventTriggerType_ActorOverPosition",
		"6": "BattleEventTriggerType_Achievement",
		"7": "BattleEventTriggerType_Win",
		"8": "BattleEventTriggerType_ActorHpLess",
		"9": "BattleEventTriggerType_ActorFirstAction",
		"10": "BattleEventTriggerType_ActorFirstAttack",
		"11": "BattleEventTriggerType_ActorFirstAttackAfter",
		"12": "BattleEventTriggerType_ActorFirstSkill",
		"13": "BattleEventTriggerType_ActorFirstBeAttack",
		"14": "BattleEventTriggerType_KillCount",
		"15": "BattleEventTriggerType_ActorCountLess",
		"16": "BattleEventTriggerType_GroupDie",
		"17": "BattleEventTriggerType_MultiTrigger",
		"18": "BattleEventTriggerType_NotTrigger",
		"19": "BattleEventTriggerType_TriggerTurnCount",
		"20": "BattleEventTriggerType_ActorAttackTarget",
		"21": "BattleEventTriggerType_ActorAttackTargetAfter",
		"22": "BattleEventTriggerType_TurnCountMulti",
		"23": "BattleEventTriggerType_TurnEndNotDamage"
	},
	"BattleLoseConditionType": {
		"0": "BattleLoseConditionType_None",
		"1": "BattleLoseConditionType_DieAll",
		"2": "BattleLoseConditionType_ActorDie",
		"3": "BattleLoseConditionType_ActorReachPosition",
		"4": "BattleLoseConditionType_DieCount",
		"5": "BattleLoseConditionType_PlayerDieCount",
		"6": "BattleLoseConditionType_NpcDieCount",
		"7": "BattleLoseConditionType_EventTrigger"
	},
	"BattlePerformType": {
		"0": "BattlePerformType_None",
		"1": "BattlePerformType_Dialog",
		"2": "BattlePerformType_PlayMusic",
		"3": "BattlePerformType_PlaySound",
		"4": "BattlePerformType_PlayFx",
		"5": "BattlePerformType_PlayActorFx",
		"6": "BattlePerformType_ChangeTerrain",
		"7": "BattlePerformType_CameraFocusPosition",
		"8": "BattlePerformType_CameraFocusActor",
		"9": "BattlePerformType_CreateActor",
		"10": "BattlePerformType_CreateActorNear",
		"11": "BattlePerformType_RemoveActor",
		"12": "BattlePerformType_ActorMove",
		"13": "BattlePerformType_ActorMoveNear",
		"14": "BattlePerformType_ActorAttack",
		"15": "BattlePerformType_ActorSkill",
		"16": "BattlePerformType_ActorDir",
		"17": "BattlePerformType_ActorAnimation",
		"18": "BattlePerformType_ActorIdle",
		"19": "BattlePerformType_WaitTime",
		"20": "BattlePerformType_StopBattle"
	},
	"BattleWinConditionType": {
		"0": "BattleWinConditionType_None",
		"1": "BattleWinConditionType_KillAll",
		"2": "BattleWinConditionType_KillActor",
		"3": "BattleWinConditionType_ActorReachPosition",
		"4": "BattleWinConditionType_ActorNotDead",
		"5": "BattleWinConditionType_Turn",
		"6": "BattleWinConditionType_KillCount",
		"7": "BattleWinConditionType_KillOthers",
		"8": "BattleWinConditionType_ActorHpLess",
		"9": "BattleWinConditionType_EventTrigger"
	},
	"BehaviorCondition": {
		"1": "BehaviorCondition_EnemyEnterMoveAndAttackRange",
		"2": "BehaviorCondition_LeaderStartAttack",
		"3": "BehaviorCondition_EnemyHPPercentLessEqual",
		"4": "BehaviorCondition_NoEnemyEnterMoveAndAttackRange",
		"5": "BehaviorCondition_EveryTurn",
		"6": "BehaviorCondition_Never",
		"7": "BehaviorCondition_TurnN",
		"8": "BehaviorCondition_AttackedByEnemy",
		"9": "BehaviorCondition_EnemyEnterMoveAndAttackRangeOfMoveTarget",
		"10": "BehaviorCondition_NoEnemyEnterMoveAndAttackRangeOfMoveTarget",
		"11": "BehaviorCondition_DistanceToMoveTargetLestEqual",
		"12": "BehaviorCondition_SelfHPPercentLessEqual",
		"13": "BehaviorCondition_LeaderStopAttack",
		"14": "BehaviorCondition_DoingBehaviorN",
		"15": "BehaviorCondition_AttackedByEnemyInLastTurn",
		"16": "BehaviorCondition_FoundEnemyWithBuffN",
		"17": "BehaviorCondition_NoEnemyWithBuffN",
		"18": "BehaviorCondition_MemberAttackedByEnemy",
		"19": "BehaviorCondition_MemberHPPercentLessEqual",
		"20": "BehaviorCondition_EnemyEnterMoveAndAttackRangeExcept",
		"21": "BehaviorCondition_NoEnemyEnterMoveAndAttackRangeExcept",
		"22": "BehaviorCondition_SelfHPPercentGreaterEqual",
		"23": "BehaviorCondition_HeroNExist",
		"24": "BehaviorCondition_GroupMemberDead",
		"25": "BehaviorCondition_TurnCountN",
		"26": "BehaviorCondition_EnemyBlockWayToMoveTarget",
		"27": "BehaviorCondition_HasWayToMoveTarget"
	},
	"BuffConditionType": {
		"0": "BuffConditionType_None",
		"1": "BuffConditionType_IsAlone",
		"2": "BuffConditionType_NotAlone",
		"3": "BuffConditionType_Terrain",
		"4": "BuffConditionType_HeroArmy",
		"5": "BuffConditionType_TerrainIsDF",
		"6": "BuffConditionType_ArmyCombination",
		"7": "BuffConditionType_HeroJob"
	},
	"BuffType": {
		"0": "BuffType_None",
		"1": "BuffType_PropertiesModify",
		"2": "BuffType_Charge",
		"3": "BuffType_FieldArmy",
		"4": "BuffType_Immune",
		"5": "BuffType_DamageRebound",
		"6": "BuffType_CombatPropertiesModify",
		"7": "BuffType_CombatAttachBuff",
		"8": "BuffType_DamageAttachBuff",
		"9": "BuffType_DamageRemoveBuff",
		"10": "BuffType_CombatHeal",
		"11": "BuffType_Guard",
		"12": "BuffType_DoubleAttack",
		"13": "BuffType_DoubleMove",
		"14": "BuffType_Punch",
		"15": "BuffType_DamageRemoveCD",
		"16": "BuffType_HealOverTime",
		"17": "BuffType_DamageOverTime",
		"18": "BuffType_NewTurn",
		"19": "BuffType_RemoveDebuff",
		"20": "BuffType_TerrainAdv",
		"21": "BuffType_Restrain",
		"22": "BuffType_CombatHealOther",
		"23": "BuffType_AddBuff",
		"24": "BuffType_CombatDamage",
		"25": "BuffType_MagicAttack",
		"26": "BuffType_TeamBuff",
		"27": "BuffType_BFSkillAttachBuff",
		"28": "BuffType_BFSkill",
		"29": "BuffType_NerverDie",
		"30": "BuffType_BattlePropertiesSet",
		"31": "BuffType_Drag",
		"32": "BuffType_PropertiesExchange",
		"33": "BuffType_DamageAfterDamage",
		"34": "BuffType_HeroAura",
		"35": "BuffType_TagAura",
		"36": "BuffType_RelationModify",
		"37": "BuffType_BuffPropertiesModify",
		"38": "BuffType_AddBuffSuper",
		"39": "BuffType_Removebuff",
		"40": "BuffType_BuffPack",
		"41": "BuffType_Replace",
		"42": "BuffType_ArmyChange",
		"43": "BuffType_MoveChange",
		"44": "BuffType_DamageHealOther",
		"45": "BuffType_PhysicalAttack",
		"46": "BuffType_HealChange",
		"47": "BuffType_IgnoreRestrain",
		"48": "BuffType_HealDamage",
		"49": "BuffType_KillAttachBuff",
		"50": "BuffType_DoubleSkill"
	},
	"BuyRuleType": {
		"1": "BuyRuleType_FixedTime",
		"2": "BuyRuleType_WeekTime",
		"3": "BuyRuleType_MonthTime",
		"4": "BuyRuleType_Forever"
	},
	"CardPoolType": {
		"1": "CardPoolType_FreeCardPool",
		"2": "CardPoolType_CrystalCardPool",
		"3": "CardPoolType_ActivityCardPool"
	},
	"CardSelectType": {
		"1": "CardSelectType_SingleSelect",
		"2": "CardSelectType_TenSelect",
		"3": "CardSelectType_BothSelect"
	},
	"CollectionActivityLevelType": {
		"0": "CollectionActivityLevelType_None",
		"1": "CollectionActivityLevelType_Scenario",
		"2": "CollectionActivityLevelType_Challenge",
		"3": "CollectionActivityLevelType_Loot"
	},
	"CollectionActivityWaypointFuncType": {
		"0": "CollectionActivityWaypointFuncType_None",
		"1": "CollectionActivityWaypointFuncType_Default",
		"2": "CollectionActivityWaypointFuncType_Empty"
	},
	"CollectionActivityWaypointStateType": {
		"0": "CollectionActivityWaypointStateType_None",
		"1": "CollectionActivityWaypointStateType_Hidden",
		"2": "CollectionActivityWaypointStateType_Locked",
		"3": "CollectionActivityWaypointStateType_Unlocked"
	},
	"ConfigableConstId": {
		"1": "ConfigableConstId_Battle_StartDelay",
		"2": "ConfigableConstId_Battle_StopDelay",
		"3": "ConfigableConstId_Battle_NextTurnTime",
		"4": "ConfigableConstId_Battle_NextTeamTime",
		"5": "ConfigableConstId_Battle_NextPlayerTime",
		"6": "ConfigableConstId_Combat_StartDelay",
		"7": "ConfigableConstId_Combat_StopDelay",
		"8": "ConfigableConstId_Combat_HeroDistance",
		"9": "ConfigableConstId_Combat_SplitScreenDistance",
		"10": "ConfigableConstId_Battle_ActorMoveSpeed",
		"11": "ConfigableConstId_Battle_CameraMoveSpeed",
		"12": "ConfigableConstId_Battle_CameraSize",
		"13": "ConfigableConstId_Battle_CameraSizeMin",
		"14": "ConfigableConstId_Battle_CameraSizeMax",
		"15": "ConfigableConstId_World_CameraHeight",
		"16": "ConfigableConstId_World_CameraHeightMin",
		"17": "ConfigableConstId_World_CameraHeightMax",
		"18": "ConfigableConstId_IsSoundOn",
		"19": "ConfigableConstId_IsMusicOn",
		"20": "ConfigableConstId_Battle_SoldierCountMax",
		"21": "ConfigableConstId_Combat_SoldierMoveDelay",
		"22": "ConfigableConstId_Combat_SoldierReturnDelay",
		"23": "ConfigableConstId_Combat_TimeScale",
		"24": "ConfigableConstId_Battle_MeleeATKPunish_Mult",
		"25": "ConfigableConstId_Combat_HeroDieToPauseTime",
		"26": "ConfigableConstId_Combat_HeroDiePauseTime",
		"27": "ConfigableConstId_Combat_HeroDieSlowMotionTime",
		"28": "ConfigableConstId_Combat_HeroDieNormalMotionTime",
		"29": "ConfigableConstId_Combat_HeroDieSlowMotionSpeed",
		"30": "ConfigableConstId_Combat_HitFlashTime",
		"31": "ConfigableConstId_Combat_HitFlashIntensity",
		"32": "ConfigableConstId_Combat_HitFlashRepeat",
		"33": "ConfigableConstId_Combat_ChargeGhostCount",
		"34": "ConfigableConstId_Combat_ChargeGhostDistance",
		"35": "ConfigableConstId_Combat_ChargeGhostFadeOut",
		"36": "ConfigableConstId_Battle_SkillPauseTime",
		"37": "ConfigableConstId_Battle_SkillPreCastDelay",
		"38": "ConfigableConstId_Battle_DamagePostDelay",
		"39": "ConfigableConstId_Battle_BuffHitPostDelay",
		"40": "ConfigableConstId_Combat_HPBarFxAccumulateTime",
		"41": "ConfigableConstId_Combat_HPBarFxAccumulateDamage",
		"42": "ConfigableConstId_RageEndTurn_INI",
		"43": "ConfigableConstId_RageBeAttack_INI",
		"44": "ConfigableConstId_RageKill_INI",
		"45": "ConfigableConstId_FlushTime",
		"46": "ConfigableConstId_FlushPeriodDay",
		"47": "ConfigableConstId_TimeEventStartTime",
		"48": "ConfigableConstId_TimeEventEndTime",
		"49": "ConfigableConstId_TimeEventMinCount",
		"50": "ConfigableConstId_TimeEventMaxCount",
		"51": "ConfigableConstId_RiftLevelActionEventProbality",
		"52": "ConfigableConstId_ScenarioActionEventProbality",
		"53": "ConfigableConstId_EventActionEventProbality",
		"54": "ConfigableConstId_ProbalityMax",
		"55": "ConfigableConstId_ActionEventMaxCount",
		"56": "ConfigableConstId_MapRandomEventMaxCount",
		"57": "ConfigableConstId_EnergyAddPeriod",
		"58": "ConfigableConstId_EnergyMax",
		"59": "ConfigableConstId_BuyEnergyCount",
		"60": "ConfigableConstId_BagMaxCapacity",
		"61": "ConfigableConstId_HeroJobRankMax",
		"62": "ConfigableConstId_HeroLevelUpCeiling",
		"63": "ConfigableConstId_SelectSkillsMaxCount",
		"64": "ConfigableConstId_BagGridMaxCapacity",
		"65": "ConfigableConstId_HeroStarLevelMax",
		"66": "ConfigableConstId_RiftLevelMaxStar",
		"67": "ConfigableConstId_JobStartLevel",
		"68": "ConfigableConstId_FirstScenarioId",
		"69": "ConfigableConstId_FirstWayPointId",
		"70": "ConfigableConstId_MailBoxMaxSize",
		"71": "ConfigableConstId_FirstInitId",
		"72": "ConfigableConstId_UnLockRandomEventPlayerLevel",
		"73": "ConfigableConstId_UnLockRandomEventSecnarioId",
		"74": "ConfigableConstId_ChatMessageMaxLength",
		"75": "ConfigableConstId_WorldChatIntervalTime",
		"76": "ConfigableConstId_AllowChatPlayerLevel",
		"77": "ConfigableConstId_SystemSelectCardHeroBroadcast",
		"78": "ConfigableConstId_MagicStoneId",
		"79": "ConfigableConstId_HeroCommentMaxLength",
		"80": "ConfigableConstId_HeroCommentMaxNums",
		"81": "ConfigableConstId_PlayerSingleHeroCommentMaxNums",
		"82": "ConfigableConstId_MaxPopularCommentEntry",
		"83": "ConfigableConstId_AllowArenaPlayerLevel",
		"84": "ConfigableConstId_ArenaGivenTicketMaxNums",
		"85": "ConfigableConstId_ArenaFindOpponentExpandPecent",
		"86": "ConfigableConstId_ArenaDowngradeMinAttackVictoriesNums",
		"87": "ConfigableConstId_LevelRaidTicketID",
		"88": "ConfigableConstId_ArenaFightExpiredTimeInterval",
		"89": "ConfigableConstId_ProtagonistHeroID",
		"90": "ConfigableConstId_PlayerNameMaxLength",
		"91": "ConfigableConstId_ArenaTopRankPlayerNums",
		"92": "ConfigableConstId_ArenaBattleReportMaxNums",
		"93": "ConfigableConstId_ArenaSelectGuardDeltaPoints",
		"94": "ConfigableConstId_ArenaChallengeGuardWinPoints",
		"95": "ConfigableConstId_ArenaChallengeGuardLosePoints",
		"96": "ConfigableConstId_ArenaOneTimeGiveTicketsNums",
		"97": "ConfigableConstId_ArenaInitialPoints",
		"98": "ConfigableConstId_ArenaOneTimeAttackUseTicketsNums",
		"99": "ConfigableConstId_ArenaAttackSuccessRandomDropRewardID",
		"100": "ConfigableConstId_ArenaRealWeekSettleDeltaTime",
		"101": "ConfigableConstId_ArenaFindOpponentOneDirectionMaxOpponentNums",
		"102": "ConfigableConstId_ChangeNameCostNums",
		"103": "ConfigableConstId_PlayerInitialHeroInteractNums",
		"104": "ConfigableConstId_HeroInteractNumsRecoveryPeriod",
		"105": "ConfigableConstId_HeroIteractMaxNums",
		"106": "ConfigableConstId_HeroIntimateMaxValue",
		"107": "ConfigableConstId_EnhanceEquipmentConsumeGoldPerExp",
		"108": "ConfigableConstId_LevelUpEquipmentStarConsumeGoldPerStar",
		"109": "ConfigableConstId_BuyArenaTicketCount",
		"110": "ConfigableConstId_ArenaPointsParameter",
		"111": "ConfigableConstId_HeroDungeonLevelMaxStar",
		"112": "ConfigableConstId_ArenaAddHeroExp",
		"113": "ConfigableConstId_ArenaAddPlayerExp",
		"114": "ConfigableConstId_OpenUILoadingFadeoutTime",
		"115": "ConfigableConstId_OpenUILoadingFadeinTime",
		"116": "ConfigableConstId_SystemSelectCardEquipmentBroadcast",
		"117": "ConfigableConstId_GoldRank",
		"118": "ConfigableConstId_CrystalRank",
		"119": "ConfigableConstId_ArenaHonourRank",
		"120": "ConfigableConstId_UserGuideSelectCardGotHeroId",
		"121": "ConfigableConstId_EnergyRank",
		"122": "ConfigableConstId_PlayerTeleportDistance",
		"123": "ConfigableConstId_PlayerExpRank",
		"124": "ConfigableConstId_UserGuideRandomEventId",
		"125": "ConfigableConstId_FirstBattleID",
		"126": "ConfigableConstId_IsVoiceOn",
		"127": "ConfigableConstId_ArenaTicketRank",
		"128": "ConfigableConstId_ArenaDowngradeMinLevelId",
		"129": "ConfigableConstId_ArenaGuardMinLevelId",
		"130": "ConfigableConstId_WriteSurveyPlayerLevel",
		"131": "ConfigableConstId_AutoEquipmentDeltaTime",
		"132": "ConfigableConstId_MaxLevelDanmakuEntryLength",
		"133": "ConfigableConstId_MaxLevelDanmakuEntryNumsPerTurn",
		"134": "ConfigableConstId_DanmakuIntervalTime",
		"135": "ConfigableConstId_DanmakuMoveSpeedMax",
		"136": "ConfigableConstId_DanmakuMoveSpeedMin",
		"137": "ConfigableConstId_GuaranteedAccumulatedValueResetHeroRank",
		"138": "ConfigableConstId_ArenaDefenderBehaviorID",
		"139": "ConfigableConstId_ArenaDefenderGroupBehaviorID",
		"140": "ConfigableConstId_MovePixelToSliderRatio",
		"141": "ConfigableConstId_PublicTeamRoomLeaderKickOutDeltaTime",
		"142": "ConfigableConstId_NonPublicTeamRoomLeaderKickOutDeltaTime",
		"143": "ConfigableConstId_ViewTeamRoomMaxNums",
		"144": "ConfigableConstId_GlobalRankingListOpenPlayerLevel",
		"145": "ConfigableConstId_HeroRankingListOpenHeroLevel",
		"146": "ConfigableConstId_TeamRoomInviteDeltaTime",
		"147": "ConfigableConstId_BusinessCardDescMaxLength",
		"148": "ConfigableConstId_BusinessCardHeroMaxNums",
		"149": "ConfigableConstId_SendFriendShipPointsEverytime",
		"150": "ConfigableConstId_SendFriendShipPointsMaxTimes",
		"151": "ConfigableConstId_ReceiveFriendShipPointsMaxTimes",
		"152": "ConfigableConstId_PixelIntervalForVoice",
		"153": "ConfigableConstId_SearchUserByNameResultMax",
		"154": "ConfigableConstId_MaxDomesticFriends",
		"155": "ConfigableConstId_MaxForeignFriends",
		"156": "ConfigableConstId_MaxBlacklist",
		"157": "ConfigableConstId_MaxInvites",
		"158": "ConfigableConstId_MaxSuggestedUsers",
		"159": "ConfigableConstId_SuggestedUserLevelDiff",
		"160": "ConfigableConstId_MaxLevelDiffMultiply",
		"161": "ConfigableConstId_InviteExpireSeconds",
		"162": "ConfigableConstId_RecentContactsMaxCount",
		"163": "ConfigableConstId_HeroAssistantTaskHeroAssignMaxCount",
		"164": "ConfigableConstId_BattleRoomReadyTimeOutTime",
		"165": "ConfigableConstId_MaxGroupsPerUser",
		"166": "ConfigableConstId_MaxGroupMembers",
		"167": "ConfigableConstId_BattleInviteFriendsToPracticeMaxWaitInterval",
		"168": "ConfigableConstId_DecomposeEquipmentBackGoldPercent",
		"169": "ConfigableConstId_DayBonusNum_Aniki",
		"170": "ConfigableConstId_DayBonusNum_ThearchyTrial",
		"171": "ConfigableConstId_DayBonusNum_HeroTrain",
		"172": "ConfigableConstId_DayBonusNum_MemoryCorridor",
		"173": "ConfigableConstId_DayBonusNum_Crusade",
		"174": "ConfigableConstId_AlchemyMaxNum",
		"175": "ConfigableConstId_FriendPointsFightWithFriends",
		"176": "ConfigableConstId_MaxFriendPointsFightWithFriendsEveryday",
		"177": "ConfigableConstId_BattleRoomPlayerReconnectTimeOutTime",
		"178": "ConfigableConstId_TeamBattleRoomPlayerActionClientTimeOutTime",
		"179": "ConfigableConstId_PVPBattleRoomPlayerActionClientTimeOutTime",
		"180": "ConfigableConstId_TeamBattleRoomPlayerActionServerTimeOutTime",
		"181": "ConfigableConstId_PVPBattleRoomPlayerActionServerTimeOutTime",
		"182": "ConfigableConstId_ChatVoiceToTextTimeOutTime",
		"183": "ConfigableConstId_TeamFriendShipPointRewardPerFriend",
		"184": "ConfigableConstId_MaxEnchantSamePropertyNums",
		"185": "ConfigableConstId_ChatHistoryRecordStoreTimeLimit",
		"186": "ConfigableConstId_ChatHistoryRecordStoreMessageLengthLimit",
		"187": "ConfigableConstId_ChatHistoryRecordSaveMessageLengthOnClear",
		"188": "ConfigableConstId_ChatPrivateChatRecentLinkPlayerCountLimit",
		"189": "ConfigableConstId_ChatPrivateChatRecentLinkGroupCountLimit",
		"190": "ConfigableConstId_TeamInvitationTimeoutTime",
		"191": "ConfigableConstId_RecentContactsChatMaxCount",
		"192": "ConfigableConstId_RecentContactsTeamBattleMaxCount",
		"193": "ConfigableConstId_DayBonusNum_CooperateBattle",
		"194": "ConfigableConstId_HeroAssistantTaskSlotCount",
		"195": "ConfigableConstId_ChatGroupNameMaxLength",
		"196": "ConfigableConstId_FirstBattleUserGuideID",
		"197": "ConfigableConstId_TeamChatBubbleStayTime",
		"198": "ConfigableConstId_ChatGroupCreateMinUserCount",
		"199": "ConfigableConstId_ChatGroupDisbandUserCount",
		"200": "ConfigableConstId_OpenServiceActivityUnlockLevel",
		"201": "ConfigableConstId_UseBoxItemMaxCount",
		"202": "ConfigableConstId_ServerTolerateClientSpeedUpMaxNums",
		"203": "ConfigableConstId_ServerCheckClientHeartBeatReachMinPeriod",
		"204": "ConfigableConstId_ClientSendHeartBeatPeriod",
		"205": "ConfigableConstId_DragHeroToBattleUserGuideID",
		"206": "ConfigableConstId_FriendshipPointsRank",
		"207": "ConfigableConstId_ClientPauseReloginTimeout",
		"208": "ConfigableConstId_ClientLogFileExpireDays",
		"209": "ConfigableConstId_BuffDisplayTime",
		"210": "ConfigableConstId_TeamRoomInviteeLevelInfoGetTime",
		"211": "ConfigableConstId_ArenaNewbiePoints",
		"212": "ConfigableConstId_ArenaFindingOpponentDeltaLevel",
		"213": "ConfigableConstId_ArenaFlushOpponentDeltaTime",
		"214": "ConfigableConstId_BattleRegretCountMax",
		"215": "ConfigableConstId_ChatRoomPlayerMaxNums",
		"216": "ConfigableConstId_ArenaLevelMaxPoints",
		"217": "ConfigableConstId_DefaultHeadFrameId",
		"218": "ConfigableConstId_RealTimePVPInitialScore",
		"219": "ConfigableConstId_RealTimePVPMinRequiredLevel",
		"220": "ConfigableConstId_RealTimePVPSilverHeroCount_Turn1",
		"221": "ConfigableConstId_RealTimePVPSilverHeroCount_Turn2",
		"222": "ConfigableConstId_RealTimePVPSilverHeroCount_Turn3",
		"223": "ConfigableConstId_RealTimePVPSilverHeroCount_Turn4",
		"224": "ConfigableConstId_RealTimePVPSilverHeroCount_Turn5",
		"225": "ConfigableConstId_RealTimePVPSilverHeroCount_Turn6",
		"226": "ConfigableConstId_RealTimePVPGoldHeroCount_Turn1",
		"227": "ConfigableConstId_RealTimePVPGoldHeroCount_Turn2",
		"228": "ConfigableConstId_RealTimePVPGoldHeroCount_Turn3",
		"229": "ConfigableConstId_RealTimePVPGoldHeroCount_Turn4",
		"230": "ConfigableConstId_RealTimePVPGoldHeroCount_Turn5",
		"231": "ConfigableConstId_RealTimePVPGoldHeroCount_Turn6",
		"232": "ConfigableConstId_RealTimePVPGoldHeroCount_Turn7",
		"233": "ConfigableConstId_RealTimePVPGoldProtectHeroCount",
		"234": "ConfigableConstId_RealTimePVPGoldBanHeroCount",
		"235": "ConfigableConstId_RealTimePVPTurnInterval",
		"236": "ConfigableConstId_RealTimePVPSilverCountdown",
		"237": "ConfigableConstId_RealTimePVPGoldCountdown",
		"238": "ConfigableConstId_RealTimePVPBattleStartTime",
		"239": "ConfigableConstId_RealTimePVPMatchmakingExpectedTime",
		"240": "ConfigableConstId_RealTimePVPMatchmakingExpectedTimeAdjust",
		"241": "ConfigableConstId_RealTimePVPTopRankPlayerNums",
		"242": "ConfigableConstId_RequestAppReviewInScenario",
		"243": "ConfigableConstId_IsRequestAppReviewOn",
		"244": "ConfigableConstId_GainMaximum",
		"245": "ConfigableConstId_UpdateServerListIntervalSeconds",
		"246": "ConfigableConstId_RealTimePVPPromotionSucceedScoreBonus",
		"247": "ConfigableConstId_RealTimePVPPromotionFailedScorePenalty",
		"248": "ConfigableConstId_RealTimePVPScoreMax",
		"249": "ConfigableConstId_RealTimePVPBattleCameraSize",
		"250": "ConfigableConstId_SkinTicketRank",
		"251": "ConfigableConstId_UnLockJobUpTipScenarioId",
		"252": "ConfigableConstId_RealTimePVPAvailableTime",
		"253": "ConfigableConstId_PrivilegeItemRank",
		"254": "ConfigableConstId_RealTimePVPBotPlayDeadIntervalMin",
		"255": "ConfigableConstId_RealTimePVPBotPlayDeadIntervalMax",
		"256": "ConfigableConstId_RealTimePVPBattleReportMaxNums",
		"257": "ConfigableConstId_Battle_ClientCheckOnlinePeriod",
		"258": "ConfigableConstId_BattleRoomPlayerPauseDisconnectTime",
		"259": "ConfigableConstId_RealTimePVPSystemPlayerCountForNewSeasonAutoGeneration",
		"260": "ConfigableConstId_Rift_FirstChapterId",
		"261": "ConfigableConstId_NewUserAccumulatedMinValue",
		"262": "ConfigableConstId_NewUserAccumulatedMaxValue",
		"263": "ConfigableConstId_OldUserAccumulatedMinValue",
		"264": "ConfigableConstId_OldUserAccumulatedMaxValue",
		"265": "ConfigableConstId_PVPBattleRoomPlayerOfflineAutoBattleTimeOutTime",
		"266": "ConfigableConstId_BattleRoomPlayerActionCountdownBigNumberTime",
		"267": "ConfigableConstId_MemoryEssenceRank",
		"268": "ConfigableConstId_TeamRoomViewRefreshClientTime",
		"269": "ConfigableConstId_GoddessCharImageId",
		"270": "ConfigableConstId_GuildCreateJoinLevel",
		"271": "ConfigableConstId_GuildCreateItemId",
		"272": "ConfigableConstId_GuildMemberCountMax",
		"273": "ConfigableConstId_GuildReJoinCoolDownTime",
		"274": "ConfigableConstId_GuildJoinApplicationPlayerCountMax",
		"275": "ConfigableConstId_GuildInviteCountMax",
		"276": "ConfigableConstId_GuildChatHistoryCount",
		"277": "ConfigableConstId_GuildHiringDeclarationMaxLength",
		"278": "ConfigableConstId_GuildVicePresidentMaxNums",
		"279": "ConfigableConstId_GuildEliteMinTotalActivities",
		"280": "ConfigableConstId_RankListGuildNums",
		"281": "ConfigableConstId_GuildVicePresidentCanUsurpTime",
		"282": "ConfigableConstId_GuildEliteCanUsurpTime",
		"283": "ConfigableConstId_GuildChangeNameCrystalCost",
		"284": "ConfigableConstId_GuildDailyMaxActivities",
		"285": "ConfigableConstId_GuildAnnouncementMaxLength",
		"286": "ConfigableConstId_GuildWeeklyMaxActivities",
		"287": "ConfigableConstId_GuildNameMaxLength",
		"288": "ConfigableConstId_GuildLogMaxNUms",
		"289": "ConfigableConstId_NewUserSecondAccumulatedMinValue",
		"290": "ConfigableConstId_NewUserSecondAccumulatedMaxValue",
		"291": "ConfigableConstId_RealTimePVP_ClientGlobalRankingEnable",
		"292": "ConfigableConstId_GenericPauseDisconnectTime",
		"293": "ConfigableConstId_RandomStoreManualFlushMaxNums",
		"294": "ConfigableConstId_AutoClimbFactor",
		"295": "ConfigableConstId_AutoClimbMax",
		"296": "ConfigableConstId_ClimbTowerFloorMax",
		"297": "ConfigableConstId_CanAutoClimbTowerHistoryFloorMax",
		"298": "ConfigableConstId_PrimaryHammer",
		"299": "ConfigableConstId_MiddleLevelHammer",
		"300": "ConfigableConstId_AdvancedHammer",
		"301": "ConfigableConstId_SpecialHammer",
		"302": "ConfigableConstId_MithralStoneRank",
		"303": "ConfigableConstId_BrillianceMithralStoneRank",
		"304": "ConfigableConstId_GuildPresidentRelieveMailTemplateId",
		"305": "ConfigableConstId_HeroDungeonDailyChallengeMaxNums",
		"306": "ConfigableConstId_Battle_CriticalDamage_Base",
		"307": "ConfigableConstId_UseCenceredAsset",
		"308": "ConfigableConstId_IsShowClientDanmakuIcon",
		"309": "ConfigableConstId_CanSendCommentMinLevel",
		"310": "ConfigableConstId_EnableXFVoiceTranslate",
		"311": "ConfigableConstId_GuildWarTeamRoomLeaderKickOutDeltaTime",
		"312": "ConfigableConstId_GuildMassiveCombatAvailableCountPerWeek",
		"313": "ConfigableConstId_GuildMassiveCombatRandomHeroTagIds",
		"314": "ConfigableConstId_GuildMassiveCombatMinTitleToStart",
		"315": "ConfigableConstId_GuildMassiveCombatMinTitleToSurrender",
		"316": "ConfigableConstId_GuildMassiveCombatMaxHeroTagIdForStronghold",
		"317": "ConfigableConstId_GuildMedalRank",
		"318": "ConfigableConstId_Battle_AnikiUnchartedBlessingPassiveSkillId",
		"319": "ConfigableConstId_Battle_ThearchyUnchartedBlessingPassiveSkillId",
		"320": "ConfigableConstId_EternalShrineDailyChallengeCountMax",
		"321": "ConfigableConstId_Battle_EternalShrineBlessingPassiveSkillId",
		"322": "ConfigableConstId_PVEBattleRoomPlayerOfflineAutoBattleTimeOutTime",
		"323": "ConfigableConstId_Battle_MemoryCorridorUnchartedBlessingPassiveSkillId",
		"324": "ConfigableConstId_Battle_HeroTrainningUnchartedBlessingPassiveSkillId",
		"325": "ConfigableConstId_RefluxBeginLevelLimit",
		"326": "ConfigableConstId_Fetter_HeroConfessionCorrectAnswerDaysMaxOffset",
		"327": "ConfigableConstId_AppleSubscribeMonthCardCanRepeatlyBuy",
		"377": "ConfigableConstId_MonthCardButtonAlwaysShow",
		"392": "ConfigableConstId_RecommendGiftBoxShowLevel",
		"500": "ConfigableConstId_IsShowWorldChatNoticeBar",
		"501": "ConfigableConstId_IsShowSystemNoticeBar",
		"502": "ConfigableConstId_IsShowGuildChatNoticeBar",
		"1000": "ConfigableConstId_NoticeCenterButtonOpen",
		"1001": "ConfigableConstId_NoticeCenterRedMarkCheckInterval"
	},
	"EquipmentType": {
		"0": "EquipmentType_Weapon",
		"1": "EquipmentType_Armor",
		"2": "EquipmentType_Helmet",
		"3": "EquipmentType_Ornament",
		"4": "EquipmentType_Enhancement",
		"5": "EquipmentType_LevelUpStar"
	},
	"EventDisappearConditionType": {
		"0": "EventDisappearConditionType_None",
		"1": "EventDisappearConditionType_Complete",
		"2": "EventDisappearConditionType_LifeTime"
	},
	"EventFuncType": {
		"0": "EventFuncType_None",
		"1": "EventFuncType_Monster",
		"2": "EventFuncType_Mission",
		"3": "EventFuncType_Dialog",
		"4": "EventFuncType_Treasure",
		"5": "EventFuncType_Shop"
	},
	"ExplanationId": {
		"1": "ExplanationId_Aniki",
		"2": "ExplanationId_Thearchy",
		"3": "ExplanationId_Arena",
		"4": "ExplanationId_TreasureMap",
		"5": "ExplanationId_MemoryCorridor",
		"6": "ExplanationId_Team",
		"7": "ExplanationId_Friend",
		"8": "ExplanationId_HeroTraining",
		"9": "ExplanationId_CooperateBattle",
		"10": "ExplanationId_HeroPhantom",
		"11": "ExplanationId_Rift",
		"12": "ExplanationId_Fetters",
		"13": "ExplanationId_FettersFavorability",
		"14": "ExplanationId_FettersConfession",
		"15": "ExplanationId_HeroDungeon",
		"16": "ExplanationId_Drill",
		"17": "ExplanationId_EquipmentForge",
		"18": "ExplanationId_Alchemy",
		"19": "ExplanationId_HeroProperty",
		"20": "ExplanationId_DrillTutor",
		"21": "ExplanationId_Battle",
		"22": "ExplanationId_RealtimeArena",
		"23": "ExplanationId_SelectCard",
		"24": "ExplanationId_Raffle",
		"25": "ExplanationId_SelectCard_ActivityPool4",
		"26": "ExplanationId_SelectCard_ActivityPool5",
		"27": "ExplanationId_Archive",
		"28": "ExplanationId_MemeryExtraction",
		"29": "ExplanationId_UnchartedScore",
		"30": "ExplanationId_ClimbTower",
		"31": "ExplanationId_Guild",
		"32": "ExplanationId_SelectCard_ActivityPool10",
		"33": "ExplanationId_SelectCard_ActivityPool11",
		"34": "ExplanationId_SelectCard_ActivityPool12",
		"35": "ExplanationId_Guild_GameList",
		"36": "ExplanationId_Guild_Raid",
		"37": "ExplanationId_Guild_MassiveCombat",
		"38": "ExplanationId_EternalShrine",
		"39": "ExplanationId_CollectionActivity",
		"40": "ExplanationId_Tarot",
		"41": "ExplanationId_BackFlowActivity"
	},
	"ExpressionPurposeType": {
		"1": "ExpressionPurposeType_Chat",
		"2": "ExpressionPurposeType_Combat"
	},
	"FetterCompleteConditionType": {
		"0": "FetterCompleteConditionType_None",
		"1": "FetterCompleteConditionType_HeroFavorabilityLevel",
		"2": "FetterCompleteConditionType_Mission"
	},
	"FightTag": {
		"0": "FightTag_None",
		"1": "FightTag_IngoreGuard",
		"2": "FightTag_BanGuard",
		"3": "FightTag_BanActiveSkill",
		"4": "FightTag_BanPassiveSkill",
		"5": "FightTag_BanHeal",
		"6": "FightTag_BanDamage",
		"7": "FightTag_BanBuff",
		"8": "FightTag_BanDeBuff",
		"9": "FightTag_BanPunch",
		"10": "FightTag_Stun",
		"11": "FightTag_Hide",
		"12": "FightTag_BanPercentDamage",
		"13": "FightTag_BanMeleePunish",
		"14": "FightTag_OnlyAttackHero",
		"15": "FightTag_BanSoldierHeal"
	},
	"FlushRuleType": {
		"0": "FlushRuleType_None",
		"1": "FlushRuleType_Period",
		"2": "FlushRuleType_FixedTime"
	},
	"GameFunctionOpenConditionType": {
		"0": "GameFunctionOpenConditionType_None",
		"1": "GameFunctionOpenConditionType_PlayerLevel",
		"2": "GameFunctionOpenConditionType_Scenario",
		"3": "GameFunctionOpenConditionType_WaypointEvent",
		"4": "GameFunctionOpenConditionType_RiftLevel"
	},
	"GameFunctionType": {
		"0": "GameFunctionType_None",
		"1": "GameFunctionType_Mission",
		"2": "GameFunctionType_Achievement",
		"3": "GameFunctionType_BattleAchievement",
		"4": "GameFunctionType_ArenaBattle",
		"5": "GameFunctionType_ArenaPoint",
		"6": "GameFunctionType_ArenaGrade",
		"7": "GameFunctionType_ArenaRanking",
		"8": "GameFunctionType_Sign",
		"9": "GameFunctionType_Rift",
		"10": "GameFunctionType_Scenario",
		"11": "GameFunctionType_Event",
		"12": "GameFunctionType_AnikiGym",
		"13": "GameFunctionType_ThearchyTrial",
		"14": "GameFunctionType_Store",
		"15": "GameFunctionType_Recharge",
		"16": "GameFunctionType_EquipmentEnhance",
		"17": "GameFunctionType_EquipmentUpgrade",
		"18": "GameFunctionType_HeroUpgrade",
		"19": "GameFunctionType_HeroJobChange",
		"20": "GameFunctionType_JobUnlock",
		"21": "GameFunctionType_BondInteract",
		"22": "GameFunctionType_Bond",
		"23": "GameFunctionType_ChangeName",
		"24": "GameFunctionType_SelectCard",
		"25": "GameFunctionType_Item",
		"26": "GameFunctionType_GM",
		"27": "GameFunctionType_HeroJobLevelUp",
		"28": "GameFunctionType_HeroDungeon",
		"29": "GameFunctionType_BuyEnergy",
		"30": "GameFunctionType_BuyArenaTicket",
		"31": "GameFunctionType_OperationalActivityExchange",
		"32": "GameFunctionType_OperationalActivityReward",
		"33": "GameFunctionType_TrainningGroupInstrumentLevelUp",
		"34": "GameFunctionType_NewPlayerInitialItem",
		"35": "GameFunctionType_BattleTreasure",
		"36": "GameFunctionType_CoachFavourabilityLevelUp",
		"37": "GameFunctionType_RandomEvent",
		"38": "GameFunctionType_Survey",
		"39": "GameFunctionType_ExchangeGiftCDKey",
		"40": "GameFunctionType_SystemGiveArenaTicket",
		"41": "GameFunctionType_TreasureMap",
		"42": "GameFunctionType_MemoryCorridor",
		"43": "GameFunctionType_HeroFavorabilityLeveUP",
		"44": "GameFunctionType_PlayerLevelUp",
		"45": "GameFunctionType_SystemRecoveyEnergy",
		"46": "GameFunctionType_HeroFetterLevelUp",
		"47": "GameFunctionType_HeroFetterUnlock",
		"48": "GameFunctionType_HeroConfess",
		"49": "GameFunctionType_HeroDungeonChaterStarReward",
		"50": "GameFunctionType_RiftChaterStarReward",
		"51": "GameFunctionType_HeroTrainning",
		"52": "GameFunctionType_TrainingGround",
		"53": "GameFunctionType_HeroAssistants",
		"54": "GameFunctionType_DecomposeBagItems",
		"55": "GameFunctionType_Friend",
		"56": "GameFunctionType_HeroPhantom",
		"57": "GameFunctionType_CooperateBattle",
		"58": "GameFunctionType_Enchant",
		"59": "GameFunctionType_Novice",
		"60": "GameFunctionType_Equipment",
		"61": "GameFunctionType_Fetters",
		"62": "GameFunctionType_AutoBattle",
		"63": "GameFunctionType_FastBattle",
		"64": "GameFunctionType_SkipBattleAnimation",
		"65": "GameFunctionType_RMBGift",
		"66": "GameFunctionType_Regret",
		"67": "GameFunctionType_Raffle",
		"68": "GameFunctionType_RMBGiftRewards",
		"69": "GameFunctionType_MonthCard",
		"70": "GameFunctionType_RealTimePVP",
		"71": "GameFunctionType_CheatBuyingGiftStoreGoodsCompensation",
		"72": "GameFunctionType_RealTimePVPBattle",
		"73": "GameFunctionType_RealTimePVPPoint",
		"74": "GameFunctionType_RealTimePVPDan",
		"75": "GameFunctionType_RealTimePVPRanking",
		"76": "GameFunctionType_MonthCardMission",
		"77": "GameFunctionType_ExchangeHeroFragment",
		"78": "GameFunctionType_BattlePractice",
		"79": "GameFunctionType_UnchartedScoreChallengeLevel",
		"80": "GameFunctionType_UnchartedScoreScoreLevel",
		"81": "GameFunctionType_GuildChangeName",
		"82": "GameFunctionType_ClimbTower",
		"83": "GameFunctionType_Guild",
		"84": "GameFunctionType_HeroCompose",
		"85": "GameFunctionType_Chat",
		"86": "GameFunctionType_HeroComment",
		"87": "GameFunctionType_RankList",
		"88": "GameFunctionType_Redeem",
		"89": "GameFunctionType_RefreshStoreByCrystal",
		"90": "GameFunctionType_SummonBroadCast",
		"91": "GameFunctionType_SendDanmaku",
		"92": "GameFunctionType_GetDanmaku",
		"93": "GameFunctionType_PBTCBTFansRewards",
		"94": "GameFunctionType_GuildMassiveCombat",
		"95": "GameFunctionType_EternalShrine",
		"96": "GameFunctionType_GuildPersonStore",
		"97": "GameFunctionType_HeroHeartFetterUnlock",
		"98": "GameFunctionType_HeroHeartFetterLevelUp",
		"99": "GameFunctionType_CollectionActivityScenario",
		"100": "GameFunctionType_CollectionActivityChallenge",
		"101": "GameFunctionType_CollectionActivityLoot",
		"102": "GameFunctionType_Reflux",
		"103": "GameFunctionType_CollectionActivityExchange",
		"104": "GameFunctionType_CollectionActivity"
	},
	"GetPathType": {
		"0": "GetPathType_None",
		"1": "GetPathType_Rift",
		"2": "GetPathType_Aniki",
		"3": "GetPathType_ThearchyTrial",
		"4": "GetPathType_Store1",
		"5": "GetPathType_Store2",
		"6": "GetPathType_Store3",
		"7": "GetPathType_Summon1",
		"8": "GetPathType_Summon2",
		"9": "GetPathType_MemoryCorridor",
		"10": "GetPathType_HeroTraining",
		"11": "GetPathType_Store4",
		"12": "GetPathType_Summon3",
		"13": "GetPathType_HeroList",
		"14": "GetPathType_Drill1",
		"15": "GetPathType_Drill2",
		"16": "GetPathType_Fetter",
		"17": "GetPathType_World",
		"18": "GetPathType_Arena",
		"19": "GetPathType_Uncharted1",
		"20": "GetPathType_Uncharted2",
		"21": "GetPathType_Friend",
		"22": "GetPathType_TreasureMap",
		"23": "GetPathType_Mission",
		"24": "GetPathType_HeroDungeon",
		"25": "GetPathType_Store5",
		"26": "GetPathType_Store6",
		"27": "GetPathType_Activity",
		"28": "GetPathType_Store7",
		"29": "GetPathType_Store8",
		"30": "GetPathType_GuildStore",
		"31": "GetPathType_EternalShrine",
		"32": "GetPathType_Guild",
		"33": "GetPathType_GuildGame",
		"34": "GetPathType_Team",
		"35": "GetPathType_Friend_Add",
		"36": "GetPathType_BuyEnergy",
		"37": "GetPathType_CooperateBattle",
		"38": "GetPathType_ClimbTower",
		"39": "GetPathType_Bag_Item",
		"40": "GetPathType_Bag_Fragment",
		"41": "GetPathType_Bag_JobMaterial",
		"42": "GetPathType_Bag_Equipment",
		"43": "GetPathType_SummonActivity",
		"44": "GetPathType_Uncharted3"
	},
	"GoddessDialogFuncType": {
		"0": "GoddessDialogFuncType_None",
		"1": "GoddessDialogFuncType_Start",
		"2": "GoddessDialogFuncType_QuestionStart",
		"3": "GoddessDialogFuncType_Result",
		"4": "GoddessDialogFuncType_Select",
		"5": "GoddessDialogFuncType_Final"
	},
	"GoodsType": {
		"0": "GoodsType_None",
		"1": "GoodsType_Gold",
		"2": "GoodsType_Crystal",
		"3": "GoodsType_Energy",
		"4": "GoodsType_Hero",
		"5": "GoodsType_JobMaterial",
		"6": "GoodsType_Item",
		"7": "GoodsType_Equipment",
		"8": "GoodsType_ArenaTicket",
		"9": "GoodsType_ArenaHonour",
		"10": "GoodsType_PlayerExp",
		"11": "GoodsType_TrainingGroundTechMaterial",
		"12": "GoodsType_FriendshipPoints",
		"13": "GoodsType_EnchantStone",
		"14": "GoodsType_MonthCard",
		"15": "GoodsType_HeadFrame",
		"16": "GoodsType_HeroSkin",
		"17": "GoodsType_SoldierSkin",
		"18": "GoodsType_SkinTicket",
		"19": "GoodsType_RealTimePVPHonor",
		"20": "GoodsType_MemoryEssence",
		"21": "GoodsType_MithralStone",
		"22": "GoodsType_BrillianceMithralStone",
		"23": "GoodsType_GuildMedal"
	},
	"HeroBiographyUnlockConditionType": {
		"0": "HeroBiographyUnlockConditionType_None",
		"1": "HeroBiographyUnlockConditionType_HeroFavorabilityLevel"
	},
	"HeroDungeonLevellUnlockConditionType": {
		"0": "HeroDungeonLevellUnlockConditionType_None",
		"1": "HeroDungeonLevellUnlockConditionType_HeroFavorabilityLevel"
	},
	"HeroHeartFetterUnlockConditionType": {
		"0": "HeroHeartFetterUnlockConditionType_None",
		"1": "HeroHeartFetterUnlockConditionType_HeroFetterLevel",
		"2": "HeroHeartFetterUnlockConditionType_HeroLevel"
	},
	"HeroInteractionResultType": {
		"0": "HeroInteractionResultType_None",
		"1": "HeroInteractionResultType_Norml",
		"2": "HeroInteractionResultType_SmallUp",
		"3": "HeroInteractionResultType_BigUp"
	},
	"HeroPerformanceUnlockConditionType": {
		"0": "HeroPerformanceUnlockConditionType_None",
		"1": "HeroPerformanceUnlockConditionType_HeroFavourabilityLevel"
	},
	"ItemDisplayType": {
		"0": "ItemDisplayType_None",
		"1": "ItemDisplayType_Consumable",
		"2": "ItemDisplayType_HeroFragment",
		"3": "ItemDisplayType_JobMaterialFragment",
		"4": "ItemDisplayType_Goblin",
		"5": "ItemDisplayType_UnchartedScore"
	},
	"ItemFuncType": {
		"0": "ItemFuncType_None",
		"1": "ItemFuncType_Gold",
		"2": "ItemFuncType_Crystal",
		"3": "ItemFuncType_Energy",
		"4": "ItemFuncType_HeroEXP",
		"5": "ItemFuncType_PlayerEXP",
		"6": "ItemFuncType_HeroFragment",
		"7": "ItemFuncType_JobMaterialFragment",
		"8": "ItemFuncType_StaticBox",
		"9": "ItemFuncType_RandomBox",
		"10": "ItemFuncType_NameChange",
		"11": "ItemFuncType_AddHeroFavorabilityExp",
		"12": "ItemFuncType_SelfSelectedBox",
		"13": "ItemFuncType_HeroSkinSelectedBox"
	},
	"LabelType": {
		"0": "LabelType_None",
		"1": "LabelType_FixedTime",
		"2": "LabelType_Recommand",
		"3": "LabelType_Discount",
		"4": "LabelType_FirstDiscount"
	},
	"MissionCardPoolType": {
		"0": "MissionCardPoolType_None",
		"1": "MissionCardPoolType_Free",
		"2": "MissionCardPoolType_Hero",
		"3": "MissionCardPoolType_Equipment"
	},
	"MissionColumnType": {
		"1": "MissionColumnType_Everyday",
		"2": "MissionColumnType_Challenge",
		"3": "MissionColumnType_Achievements",
		"4": "MissionColumnType_HeroFetter",
		"5": "MissionColumnType_BeginningOfTheLegend",
		"6": "MissionColumnType_RefluxActivity"
	},
	"MissionPeriodType": {
		"1": "MissionPeriodType_Everyday",
		"2": "MissionPeriodType_OneOff"
	},
	"MissionType": {
		"1": "MissionType_CardPoolSelectCard",
		"2": "MissionType_SummonHero",
		"3": "MissionType_ConsumeEnergy",
		"4": "MissionType_CompleteEvent",
		"5": "MissionType_CompleteLevel",
		"6": "MissionType_DirectActivation",
		"7": "MissionType_CompleteAllEverydayMission",
		"8": "MissionType_CompleteScenario",
		"9": "MissionType_ComleteSimpleRiftLevel",
		"10": "MissionType_ComleteDiffcultRiftLevel",
		"11": "MissionType_GetRiftLevelFightAchievement",
		"12": "MissionType_GetRiftLevelFightStar",
		"13": "MissionType_ConsumeCrystal",
		"14": "MissionType_ConsumeGold",
		"15": "MissionType_UseAnyHeroExpItem",
		"16": "MissionType_AllHeroAllJobLevelUpNums",
		"17": "MissionType_AllHerohaveJobNums",
		"18": "MissionType_AllHeroHaveSkillNums",
		"19": "MissionType_AllHeroHaveSoliderNums",
		"20": "MissionType_AllJobMasterHeroNums",
		"21": "MissionType_HeroMasterJobNums",
		"22": "MissionType_HaveStarHeroNums",
		"23": "MissionType_PlayerLevelUp",
		"24": "MissionType_UseCrystalBuyEnergyNums",
		"25": "MissionType_LoginGameDays",
		"26": "MissionType_RankJobHeroNums",
		"27": "MissionType_SpecificHeroFightNums",
		"28": "MissionType_CompleteBattleAchievement",
		"29": "MissionType_SpecificHeroMasterSpecificJobRelationId",
		"30": "MissionType_ArenaConsecutiveVictoryNums",
		"31": "MissionType_HasAboveLevelHeroNums",
		"32": "MissionType_TransferNewJobNums",
		"33": "MissionType_HaveRankHeroNums",
		"34": "MissionType_SpecificHeroReachSpecificLevel",
		"35": "MissionType_TrainingTechToLevel",
		"36": "MissionType_EquipmentToLevel",
		"37": "MissionType_FinishTeamBattle",
		"38": "MissionType_FavorabilityToLevel",
		"39": "MissionType_FetterToLevel",
		"40": "MissionType_EnchatEquipments",
		"41": "MissionType_TotalHeroJobLevelUp",
		"42": "MissionType_AddFriend",
		"43": "MissionType_AssignHeroToTask",
		"44": "MissionType_BattlePractice",
		"45": "MissionType_RealTimeArena",
		"46": "MissionType_ReachedSpecificRealTimeArenaDan",
		"47": "MissionType_DailyEquipmentEnchant",
		"48": "MissionType_BuyGiftStoreGoods",
		"49": "MissionType_BuyRechargeStoreGoods",
		"50": "MissionType_Share",
		"51": "MissionType_MissionSelectCard",
		"52": "MissionType_ClimbTower2SpecificFloor",
		"53": "MissionType_AccumulateLoginAfterActivityOpen",
		"54": "MissionType_TrainningTechLevelUp",
		"55": "MissionType_EquipmentLevelUp",
		"56": "MissionType_HeroFetterLevelUp",
		"57": "MissionType_JoinGuild",
		"58": "MissionType_GuildMassiveCombat",
		"59": "MissionType_SucceedAttackClimbTowerLevel",
		"60": "MissionType_EquipmentStarLevelUp"
	},
	"MonthType": {
		"1": "MonthType_January",
		"2": "MonthType_February",
		"3": "MonthType_March",
		"4": "MonthType_April",
		"5": "MonthType_May",
		"6": "MonthType_June",
		"7": "MonthType_July",
		"8": "MonthType_August",
		"9": "MonthType_September",
		"10": "MonthType_October",
		"11": "MonthType_November",
		"12": "MonthType_December"
	},
	"MoveType": {
		"0": "MoveType_None",
		"1": "MoveType_Ride",
		"2": "MoveType_Walk",
		"3": "MoveType_Water",
		"4": "MoveType_Fly",
		"5": "MoveType_FieldArmy"
	},
	"OperationalActivityType": {
		"1": "OperationalActivityType_PlayerLevelUp",
		"2": "OperationalActivityType_LimitedTimeExchange",
		"3": "OperationalActivityType_SpecificDaysLogin",
		"4": "OperationalActivityType_AccumulateDaysLogin",
		"5": "OperationalActivityType_RewardAdd",
		"6": "OperationalActivityType_ChallengeNumsAdd",
		"7": "OperationalActivityType_ActivitySelectCard",
		"8": "OperationalActivityType_Raffle",
		"9": "OperationalActivityType_AccumulateRecharge",
		"10": "OperationalActivityType_AccumulateConsumeCrystal",
		"11": "OperationalActivityType_UnchartedScore",
		"12": "OperationalActivityType_Redeem",
		"13": "OperationalActivityType_Web",
		"14": "OperationalActivityType_BuyItemGuide",
		"15": "OperationalActivityType_PBTCBTFansRewards",
		"16": "OperationalActivityType_DailyNumsAdd",
		"17": "OperationalActivityType_CollectionActivity",
		"18": "OperationalActivityType_DailyExtraRewardAdd"
	},
	"PropertyModifyType": {
		"0": "PropertyModifyType_None",
		"1": "PropertyModifyType_Hero1_HPAdd",
		"2": "PropertyModifyType_Hero1_ATAdd",
		"3": "PropertyModifyType_Hero1_DFAdd",
		"4": "PropertyModifyType_Hero1_MagicAdd",
		"5": "PropertyModifyType_Hero1_MagicDFAdd",
		"6": "PropertyModifyType_Hero1_DEXAdd",
		"7": "PropertyModifyType_Hero1_HPCmdAdd",
		"8": "PropertyModifyType_Hero1_ATCmdAdd",
		"9": "PropertyModifyType_Hero1_DFCmdAdd",
		"10": "PropertyModifyType_Hero1_MagicDFCmdAdd",
		"11": "PropertyModifyType_Hero1_BFMovePointAdd",
		"12": "PropertyModifyType_Hero1_BFAttackDistanceAdd",
		"13": "PropertyModifyType_Hero1_CriticalDamageAdd",
		"14": "PropertyModifyType_Hero1_CriticalRateAdd",
		"15": "PropertyModifyType_Hero1_HPMul",
		"16": "PropertyModifyType_Hero1_ATMul",
		"17": "PropertyModifyType_Hero1_DFMul",
		"18": "PropertyModifyType_Hero1_MagicMul",
		"19": "PropertyModifyType_Hero1_MagicDFMul",
		"20": "PropertyModifyType_Hero1_DEXMul",
		"21": "PropertyModifyType_Hero2_HPAdd",
		"22": "PropertyModifyType_Hero2_ATAdd",
		"23": "PropertyModifyType_Hero2_DFAdd",
		"24": "PropertyModifyType_Hero2_MagicAdd",
		"25": "PropertyModifyType_Hero2_MagicDFAdd",
		"26": "PropertyModifyType_Hero2_DEXAdd",
		"27": "PropertyModifyType_Hero2_HPCmdAdd",
		"28": "PropertyModifyType_Hero2_ATCmdAdd",
		"29": "PropertyModifyType_Hero2_DFCmdAdd",
		"30": "PropertyModifyType_Hero2_MagicDFCmdAdd",
		"31": "PropertyModifyType_Hero2_BFMovePointAdd",
		"32": "PropertyModifyType_Hero2_BFAttackDistanceAdd",
		"33": "PropertyModifyType_Hero2_MagicDistanceAdd",
		"34": "PropertyModifyType_Hero2_PsyDistanceAdd",
		"35": "PropertyModifyType_Hero2_CriticalDamageAdd",
		"36": "PropertyModifyType_Hero2_CriticalRateAdd",
		"37": "PropertyModifyType_Hero2_RageEndTurnAdd",
		"38": "PropertyModifyType_Hero2_RageBeAttackAdd",
		"39": "PropertyModifyType_Hero2_RageKillAdd",
		"40": "PropertyModifyType_Hero2_HPMul",
		"41": "PropertyModifyType_Hero2_ATMul",
		"42": "PropertyModifyType_Hero2_DFMul",
		"43": "PropertyModifyType_Hero2_MagicMul",
		"44": "PropertyModifyType_Hero2_MagicDFMul",
		"45": "PropertyModifyType_Hero2_DEXMul",
		"46": "PropertyModifyType_Hero2_PsyDmgMul",
		"47": "PropertyModifyType_Hero2_PsyDmgRecvMul",
		"48": "PropertyModifyType_Hero2_SuperPsyDmgRecvMul",
		"49": "PropertyModifyType_Hero2_HealMul",
		"50": "PropertyModifyType_Hero2_HealRecvMul",
		"51": "PropertyModifyType_Hero2_MagicDmgMul",
		"52": "PropertyModifyType_Hero2_MagicDmgRecvMul",
		"53": "PropertyModifyType_Hero2_SuperMagicDmgRecvMul",
		"54": "PropertyModifyType_Hero2_IgnoreDFMul",
		"55": "PropertyModifyType_Hero2_SkillDmgMul",
		"56": "PropertyModifyType_Hero2_BFSkillDmgMul",
		"57": "PropertyModifyType_Soldier1_HPAdd",
		"58": "PropertyModifyType_Soldier1_ATAdd",
		"59": "PropertyModifyType_Soldier1_DFAdd",
		"60": "PropertyModifyType_Soldier1_MagicDFAdd",
		"61": "PropertyModifyType_Soldier1_BFMovePointAdd",
		"62": "PropertyModifyType_Soldier1_BFAttackDistanceAdd",
		"63": "PropertyModifyType_Soldier1_CriticalDamageAdd",
		"64": "PropertyModifyType_Soldier1_CriticalRateAdd",
		"65": "PropertyModifyType_Soldier1_HPMul",
		"66": "PropertyModifyType_Soldier1_ATMul",
		"67": "PropertyModifyType_Soldier1_DFMul",
		"68": "PropertyModifyType_Soldier1_MagicDFMul",
		"69": "PropertyModifyType_Soldier2_HPAdd",
		"70": "PropertyModifyType_Soldier2_ATAdd",
		"71": "PropertyModifyType_Soldier2_DFAdd",
		"72": "PropertyModifyType_Soldier2_MagicDFAdd",
		"73": "PropertyModifyType_Soldier2_BFMovePointAdd",
		"74": "PropertyModifyType_Soldier2_BFAttackDistanceAdd",
		"75": "PropertyModifyType_Soldier2_CriticalDamageAdd",
		"76": "PropertyModifyType_Soldier2_CriticalRateAdd",
		"77": "PropertyModifyType_Soldier2_HPMul",
		"78": "PropertyModifyType_Soldier2_ATMul",
		"79": "PropertyModifyType_Soldier2_DFMul",
		"80": "PropertyModifyType_Soldier2_MagicDFMul",
		"81": "PropertyModifyType_Soldier2_PsyDmgMul",
		"82": "PropertyModifyType_Soldier2_PsyDmgRecvMul",
		"83": "PropertyModifyType_Soldier2_SuperPsyDmgRecvMul",
		"84": "PropertyModifyType_Soldier2_MagicDmgRecvMul",
		"85": "PropertyModifyType_Soldier2_SuperMagicDmgRecvMul",
		"86": "PropertyModifyType_Soldier2_IgnoreDFMul",
		"87": "PropertyModifyType_Hero3_HPAdd",
		"88": "PropertyModifyType_Hero3_ATAdd",
		"89": "PropertyModifyType_Hero3_DFAdd",
		"90": "PropertyModifyType_Hero3_MagicAdd",
		"91": "PropertyModifyType_Hero3_MagicDFAdd",
		"92": "PropertyModifyType_Hero3_DEXAdd",
		"93": "PropertyModifyType_Hero3_HPCmdAdd",
		"94": "PropertyModifyType_Hero3_ATCmdAdd",
		"95": "PropertyModifyType_Hero3_DFCmdAdd",
		"96": "PropertyModifyType_Hero3_MagicDFCmdAdd",
		"97": "PropertyModifyType_Hero3_CriticalDamageAdd",
		"98": "PropertyModifyType_Hero3_CriticalRateAdd",
		"99": "PropertyModifyType_Hero3_HPMul",
		"100": "PropertyModifyType_Hero3_ATMul",
		"101": "PropertyModifyType_Hero3_DFMul",
		"102": "PropertyModifyType_Hero3_MagicMul",
		"103": "PropertyModifyType_Hero3_MagicDFMul",
		"104": "PropertyModifyType_Hero3_DEXMul",
		"105": "PropertyModifyType_Hero2_RangeDmgRecvMul",
		"106": "PropertyModifyType_Soldier2_RangeDmgRecvMul",
		"107": "PropertyModifyType_Hero2_RecvCriticalRateAdd",
		"108": "PropertyModifyType_Soldier2_RecvCriticalRateAdd",
		"109": "PropertyModifyType_Soldier2_MagicDmgMul",
		"110": "PropertyModifyType_Hero2_TrueDmgMul",
		"111": "PropertyModifyType_Hero2_RecvTrueDmgMul",
		"112": "PropertyModifyType_Hero2_RecvBFSkillDmgMul",
		"113": "PropertyModifyType_Soldier2_RecvBFSkillDmgMul",
		"114": "PropertyModifyType_Count"
	},
	"PropertyType": {
		"0": "PropertyType_None",
		"1": "PropertyType_HP",
		"2": "PropertyType_AT",
		"3": "PropertyType_DF",
		"4": "PropertyType_Magic",
		"5": "PropertyType_MagicDF",
		"6": "PropertyType_DEX",
		"7": "PropertyType_BFMovePoint",
		"8": "PropertyType_BFAttackDistance"
	},
	"RafflePoolType": {
		"0": "RafflePoolType_None",
		"1": "RafflePoolType_Raffle",
		"2": "RafflePoolType_Tarot"
	},
	"RiftChapterUnlockConditionType": {
		"0": "RiftChapterUnlockConditionType_None",
		"1": "RiftChapterUnlockConditionType_PlayerLevel",
		"2": "RiftChapterUnlockConditionType_Scenario",
		"3": "RiftChapterUnlockConditionType_ChapterStar"
	},
	"RiftLevelType": {
		"0": "RiftLevelType_None",
		"1": "RiftLevelType_Scenario",
		"2": "RiftLevelType_Event"
	},
	"RiftLevelUnlockConditionType": {
		"0": "RiftLevelUnlockConditionType_None",
		"1": "RiftLevelUnlockConditionType_Scenario",
		"2": "RiftLevelUnlockConditionType_Achievement",
		"3": "RiftLevelUnlockConditionType_Hero",
		"4": "RiftLevelUnlockConditionType_RiftLevel"
	},
	"ScenarioUnlockConditionType": {
		"0": "ScenarioUnlockConditionType_None",
		"1": "ScenarioUnlockConditionType_PlayerLevel",
		"2": "ScenarioUnlockConditionType_RiftLevel",
		"3": "ScenarioUnlockConditionType_Count"
	},
	"SelectSkill": {
		"1": "SelectSkill_DefaultSelection",
		"2": "SelectSkill_DirectReachTargetSkill",
		"3": "SelectSkill_ExcludeSkillID",
		"4": "SelectSkill_IncludeSkillID"
	},
	"SelectTarget": {
		"1": "SelectTarget_EnemyNearest",
		"2": "SelectTarget_SelfPosition",
		"3": "SelectTarget_DefaultSelection",
		"4": "SelectTarget_SameAsLeader",
		"5": "SelectTarget_PositionNearest",
		"6": "SelectTarget_MemberIndex",
		"7": "SelectTarget_MemberHeroID",
		"8": "SelectTarget_TargetInSkillRange",
		"9": "SelectTarget_EnemyWithBuffN",
		"10": "SelectTarget_EnemyIDFilter",
		"11": "SelectTarget_Leader",
		"12": "SelectTarget_RandomReachableEmptyPosition",
		"13": "SelectTarget_EnemyBlockWayToMoveTarget"
	},
	"SkillAIType": {
		"1": "SkillAIType_DamageSingle",
		"2": "SkillAIType_DamageAssault",
		"3": "SkillAIType_DamageAOE",
		"4": "SkillAIType_DamageAOESelf",
		"5": "SkillAIType_Heal",
		"6": "SkillAIType_HealRange",
		"7": "SkillAIType_HealRangeSelf",
		"8": "SkillAIType_BuffSingle",
		"9": "SkillAIType_BuffAOE",
		"10": "SkillAIType_Dispel",
		"11": "SkillAIType_BuffSelf1",
		"12": "SkillAIType_BuffSelf2",
		"13": "SkillAIType_Guard",
		"14": "SkillAIType_NewTurn",
		"15": "SkillAIType_RemoveCD",
		"16": "SkillAIType_Summon",
		"17": "SkillAIType_Teleport",
		"18": "SkillAIType_DamageAOESelfSingle",
		"19": "SkillAIType_TargetEnemyWithN",
		"20": "SkillAIType_BuffSelfAOE"
	},
	"SkillTargetType": {
		"0": "SkillTargetType_None",
		"1": "SkillTargetType_Enemy",
		"2": "SkillTargetType_Ally",
		"3": "SkillTargetType_Any",
		"4": "SkillTargetType_Position",
		"5": "SkillTargetType_EmptyPosition",
		"6": "SkillTargetType_NoNpcAlly",
		"7": "SkillTargetType_NoSelfNpcAlly",
		"8": "SkillTargetType_Orientation"
	},
	"SkillType": {
		"0": "SkillType_None",
		"1": "SkillType_Slash",
		"2": "SkillType_Shoot",
		"3": "SkillType_Charge",
		"4": "SkillType_MagicDamage",
		"5": "SkillType_BF_Heal",
		"6": "SkillType_BF_HealRemoveCD",
		"7": "SkillType_BF_HealNewTurn",
		"8": "SkillType_BF_Teleport",
		"9": "SkillType_BF_Summon",
		"10": "SkillType_BF_MagicDamage",
		"11": "SkillType_Passive",
		"12": "SkillType_BF_DamageHeal",
		"13": "SkillType_BF_HealPercent",
		"14": "SkillType_BF_AddBuff"
	},
	"SoundTableId": {
		"0": "SoundTableId_None",
		"1": "SoundTableId_SelectHero",
		"2": "SoundTableId_DragHero",
		"3": "SoundTableId_DropHero",
		"4": "SoundTableId_Error",
		"5": "SoundTableId_LoginMusic",
		"6": "SoundTableId_ChangeJobMusic",
		"7": "SoundTableId_ChangeJobMusic2",
		"8": "SoundTableId_GoddessDialogMusic",
		"9": "SoundTableId_BattleMoveWalk",
		"10": "SoundTableId_BattleMoveRide",
		"11": "SoundTableId_BattleMoveFly",
		"12": "SoundTableId_HeroJobTransferMusic",
		"13": "SoundTableId_ShowStartAnimation",
		"14": "SoundTableId_HeroDieAtCombat",
		"15": "SoundTableId_AddExpToHero",
		"16": "SoundTableId_SkipCombatHeroDead",
		"17": "SoundTableId_SkipCombatSoldierDead",
		"18": "SoundTableId_SkipCombatHpBreakL",
		"19": "SoundTableId_SkipCombatHpBreakS",
		"20": "SoundTableId_HeroDungeonEnter",
		"21": "SoundTableId_HeroDungeonGearRoll",
		"22": "SoundTableId_ShowDangerRegion"
	},
	"StoreId": {
		"0": "StoreId_None",
		"1": "StoreId_BlackMarket",
		"2": "StoreId_Crystal",
		"3": "StoreId_Honor",
		"4": "StoreId_Friendship",
		"5": "StoreId_SkinHero",
		"6": "StoreId_SkinSoldier",
		"7": "StoreId_Gift",
		"8": "StoreId_Privilege",
		"9": "StoreId_Medal",
		"10": "StoreId_Union",
		"11": "StoreId_Recharge",
		"12": "StoreId_Memory",
		"13": "StoreId_Equipment",
		"14": "StoreId_GuildPerson"
	},
	"StoreType": {
		"0": "StoreType_None",
		"1": "StoreType_Static",
		"2": "StoreType_Random",
		"3": "StoreType_Recharge",
		"4": "StoreType_Gift"
	},
	"StringTableId": {
		"10": "StringTableId_GiftCDKey_ParamError",
		"11": "StringTableId_GiftCDKey_Exception1",
		"17": "StringTableId_GiftCDKey_SignError",
		"100": "StringTableId_GiftCDKey_Useable",
		"101": "StringTableId_GiftCDKey_NotExist1",
		"102": "StringTableId_GiftCDKey_NotExist2",
		"103": "StringTableId_GiftCDKey_UnUsed1",
		"104": "StringTableId_GiftCDKey_Used",
		"105": "StringTableId_GiftCDKey_NotExist3",
		"106": "StringTableId_GiftCDKey_UnUsed2",
		"107": "StringTableId_GiftCDKey_NotOpen",
		"108": "StringTableId_GiftCDKey_Invalid",
		"109": "StringTableId_GiftCDKey_TypeError",
		"110": "StringTableId_GiftCDKey_TypeUnUsed",
		"111": "StringTableId_GiftCDKey_SubTypeLimmited1",
		"112": "StringTableId_GiftCDKey_SubTypeLimmited2",
		"113": "StringTableId_GiftCDKey_UnUsed3",
		"114": "StringTableId_GiftCDKey_UnUsed4",
		"115": "StringTableId_GiftCDKey_OK",
		"116": "StringTableId_GiftCDKey_Exception2",
		"117": "StringTableId_ActorInfo_SkillCount",
		"118": "StringTableId_Bag_ItemCount",
		"119": "StringTableId_JobMaterial_ItemCount",
		"120": "StringTableId_JobMaterial_RequireHeroLevel",
		"125": "StringTableId_Melee",
		"126": "StringTableId_NotMelee",
		"127": "StringTableId_Property",
		"128": "StringTableId_Close",
		"132": "StringTableId_ItemDesc_Count",
		"133": "StringTableId_ItemDesc_Gold",
		"134": "StringTableId_ItemDesc_Crystal",
		"135": "StringTableId_ItemDesc_Energy",
		"136": "StringTableId_ItemDesc_ArenaTicket",
		"137": "StringTableId_ItemDesc_ArenaHonour",
		"138": "StringTableId_ItemDesc_PlayerExp",
		"139": "StringTableId_Resource_Gold",
		"140": "StringTableId_Resource_Crystal",
		"141": "StringTableId_Resource_Energy",
		"142": "StringTableId_Resource_ArenaTicket",
		"143": "StringTableId_Resource_ArenaHonour",
		"144": "StringTableId_Resource_PlayerExp",
		"145": "StringTableId_Time_Day",
		"146": "StringTableId_Time_Hour",
		"147": "StringTableId_Time_Minute",
		"148": "StringTableId_Time_Second",
		"149": "StringTableId_Time_Point",
		"150": "StringTableId_Time_InOneHour",
		"151": "StringTableId_Time_HoursAgo",
		"152": "StringTableId_Time_DaysAgo",
		"153": "StringTableId_Equipment_SkillOwner",
		"154": "StringTableId_ItemDesc_FriendshipPoints",
		"155": "StringTableId_Resource_FriendshipPoints",
		"156": "StringTableId_ItemDesc_SkinTicket",
		"157": "StringTableId_Resource_SkinTicket",
		"158": "StringTableId_ItemDesc_MemoryEssence",
		"159": "StringTableId_Resource_MemoryEssence",
		"160": "StringTableId_Time_Online",
		"161": "StringTableId_Time_MinutesAgo",
		"162": "StringTableId_ItemDesc_MithralStone",
		"163": "StringTableId_Resource_MithralStone",
		"164": "StringTableId_ItemDesc_BrillianceMithralStone",
		"165": "StringTableId_Resource_BrillianceMithralStone",
		"166": "StringTableId_Sign_NDay",
		"167": "StringTableId_Resource_GuildMedal",
		"168": "StringTableId_ItemDesc_GuildMedal",
		"169": "StringTableId_Rank_NoRank",
		"200": "StringTableId_World_OpenScenario",
		"201": "StringTableId_UnlockScenario_PlayerLevel",
		"202": "StringTableId_UnlockScenario_RiftLevel",
		"203": "StringTableId_UnlockScenario_Title",
		"210": "StringTableId_UnlockCondition_PlayerLevel",
		"211": "StringTableId_UnlockCondition_Scenario",
		"212": "StringTableId_UnlockCondition_Achievement",
		"213": "StringTableId_UnlockCondition_Hero",
		"214": "StringTableId_UnlockCondition_RiftLevel",
		"215": "StringTableId_UnlockCondition_HeroDungeonLevel",
		"220": "StringTableId_Reward_First",
		"221": "StringTableId_Reward_Drop",
		"230": "StringTableId_BattleWin_StarTurnMax",
		"231": "StringTableId_BattleWin_RiftStarDeadMax",
		"232": "StringTableId_BattleWin_HeroDungeonStarDeadMax",
		"233": "StringTableId_BattleWin_NoStarCondition",
		"234": "StringTableId_BattleWin_StarNoDead",
		"240": "StringTableId_Arena_Guard",
		"241": "StringTableId_Arena_Attack",
		"242": "StringTableId_Arena_Defend",
		"243": "StringTableId_Arena_Revenge",
		"244": "StringTableId_Arena_Win",
		"245": "StringTableId_Arena_Lose",
		"246": "StringTableId_Arena_WeekWin",
		"247": "StringTableId_Arena_TicketCount",
		"248": "StringTableId_Arena_PromoteBattleTips",
		"249": "StringTableId_Arena_HaveRevenge",
		"250": "StringTableId_Arena_OpponentFlushTime",
		"251": "StringTableId_Arena_ArenaPointLessThan",
		"252": "StringTableId_Arena_WinRate0",
		"253": "StringTableId_Arena_WinRate1",
		"254": "StringTableId_Arena_WinRate2",
		"255": "StringTableId_Arena_NoArenaDefensiveHero",
		"256": "StringTableId_Arena_MatchingTimeUnknown",
		"257": "StringTableId_Arena_PromoteSucceed",
		"258": "StringTableId_Arena_NoRanking",
		"259": "StringTableId_Arena_CanNotStartArenaBattle",
		"260": "StringTableId_Arena_BattleReportVersionError",
		"300": "StringTableId_Team_ExitMatch",
		"301": "StringTableId_Team_MatchWaitCount",
		"302": "StringTableId_Team_AllGameFunctionType",
		"303": "StringTableId_Team_AllLocation",
		"304": "StringTableId_Team_Authority_Public",
		"305": "StringTableId_Team_Authority_FriendAndGuild",
		"306": "StringTableId_Team_Authority_NonPublic",
		"307": "StringTableId_Team_CanNotChangeAuthority",
		"308": "StringTableId_Team_StartAutoMatch",
		"309": "StringTableId_Team_OnlineFriend",
		"310": "StringTableId_Team_OnlineRecent",
		"311": "StringTableId_Team_InvitationRefused",
		"312": "StringTableId_Team_InvitationAgain",
		"313": "StringTableId_Team_CanOnlyReplaceHero",
		"314": "StringTableId_Team_CanNotChangeTeammate",
		"315": "StringTableId_Team_RoomCountdown",
		"316": "StringTableId_Team_InviteTeammateAgain",
		"317": "StringTableId_Team_GameFunctionNotOpen",
		"318": "StringTableId_Team_LocationNotOpen",
		"319": "StringTableId_Team_NoTeamRoom",
		"320": "StringTableId_Team_LocationLock",
		"321": "StringTableId_Team_CanNotChangeEnemy",
		"322": "StringTableId_Team_PlayerBattleNotOpen",
		"323": "StringTableId_Team_PlayerQuitBattle",
		"324": "StringTableId_Team_PlayerLevelNotOpen",
		"325": "StringTableId_Team_PlayerTodayHasNoHero",
		"326": "StringTableId_Team_KickOutReason_LeaderTimeOut",
		"327": "StringTableId_Team_KickOutReason_KickOutGuild",
		"328": "StringTableId_Team_KickOutReason_GuildMassiveCombatFinish",
		"330": "StringTableId_PVP_OpponentQuitBattle",
		"331": "StringTableId_PVP_CanOnlyReplaceHero",
		"400": "StringTableId_Friend_SearchFriendNameEmpty",
		"401": "StringTableId_Friend_SelectServerError",
		"402": "StringTableId_Friend_InviteFriendSuccess",
		"403": "StringTableId_Friend_ConfirmDeleteFriend",
		"404": "StringTableId_Friend_DeleteFriendSuccess",
		"405": "StringTableId_Friend_ConfirmUnblockPlayer",
		"406": "StringTableId_Friend_UnblockPlayerSuccess",
		"407": "StringTableId_Friend_PVPInviteNotify",
		"408": "StringTableId_Friend_PVPInviteFail",
		"409": "StringTableId_Friend_InvitePlayerAtLeastTwo",
		"410": "StringTableId_Friend_InvitePlayerCountZero",
		"411": "StringTableId_Friend_SendFriendShipPointTopLimit",
		"412": "StringTableId_Friend_AlreadySendFriendShipPoint",
		"413": "StringTableId_Friend_AlreadyMaxInviteCount",
		"414": "StringTableId_Friend_AlreadyInGroup",
		"415": "StringTableId_Friend_OnlineCount",
		"416": "StringTableId_Friend_BlockSuccess",
		"417": "StringTableId_Friend_ConfirmLeaveGroup",
		"418": "StringTableId_Friend_LeaveGroupSuccess",
		"419": "StringTableId_Friend_ConfirmKickGroup",
		"420": "StringTableId_Friend_KickGroupSuccess",
		"421": "StringTableId_Friend_SendFriendShipPointSuccess",
		"422": "StringTableId_Friend_ReceiveFriendShipPoint",
		"423": "StringTableId_Friend_FriendInviteAccept",
		"424": "StringTableId_Friend_CreateGroupSuccess",
		"425": "StringTableId_Friend_GroupDissolved",
		"426": "StringTableId_Friend_FriendIsFull",
		"427": "StringTableId_Friend_AlreadyIsFriend",
		"428": "StringTableId_Friend_AlreadyBlock",
		"429": "StringTableId_Friend_BeBlockedInvite",
		"430": "StringTableId_Friend_BeInvited",
		"431": "StringTableId_Friend_BeBlockedFriend",
		"432": "StringTableId_Friend_GroupMemberHaveRestCount",
		"433": "StringTableId_Friend_GroupIsFull",
		"434": "StringTableId_Friend_DefaultGroupName",
		"500": "StringTableId_Uncharted_LimitTime",
		"501": "StringTableId_Uncharted_RestTimeDay",
		"502": "StringTableId_Uncharted_RestTimeHour",
		"503": "StringTableId_Uncharted_RestTimeMinute",
		"504": "StringTableId_Uncharted_NotOpenTime",
		"505": "StringTableId_Uncharted_TodayRemainCount",
		"600": "StringTableId_Regret_Count0",
		"601": "StringTableId_Regret_Count",
		"602": "StringTableId_Regret_NoCount",
		"603": "StringTableId_Regret_Turn",
		"604": "StringTableId_Regret_MyAction",
		"605": "StringTableId_Regret_TeammateAction",
		"606": "StringTableId_Regret_EnemyAction",
		"700": "StringTableId_Login_Logining",
		"701": "StringTableId_Login_Login_Fail",
		"702": "StringTableId_Login_CanNotSelectMaintainServer",
		"703": "StringTableId_ServerOpenTimeFormatString",
		"704": "StringTableId_Msg_ServerWillOpenAtTime",
		"705": "StringTableId_ServerIsFull",
		"706": "StringTableId_ServerRefuseNewPlayer",
		"707": "StringTableId_LastLogin_LessOndDay",
		"708": "StringTableId_LastLogin_LessOneMonth",
		"709": "StringTableId_LastLogin_MoreThenOneMonth",
		"710": "StringTableId_QRLogin_Success",
		"711": "StringTableId_QRLogin_Failed",
		"712": "StringTableId_QRLogin_Cancel",
		"800": "StringTableId_World_NoEvent",
		"801": "StringTableId_World_NoSurvey",
		"802": "StringTableId_World_HadFinishedSurvey",
		"803": "StringTableId_World_SurveyLimit",
		"1014": "StringTableId_Msg_SkillPointNotEnough",
		"1016": "StringTableId_Dialog_SkipDialog",
		"1017": "StringTableId_Msg_AddExp_ExpMax",
		"1018": "StringTableId_Msg_ComposeHero",
		"1020": "StringTableId_Msg_AnikiGymNotOpen",
		"1021": "StringTableId_Msg_AnikiLevelNotOpen",
		"1022": "StringTableId_Msg_ThearchyLevelNotOpen",
		"1023": "StringTableId_Msg_SkillEquipNumMax",
		"1024": "StringTableId_Msg_JobCantEquipSkill",
		"1025": "StringTableId_Msg_BreakToMax",
		"1026": "StringTableId_Msg_NextBreakLvPreview",
		"1027": "StringTableId_Msg_DontHaveSoldier",
		"1028": "StringTableId_Msg_FragmentCondition",
		"1029": "StringTableId_Msg_TransferJobIsCurJob",
		"1030": "StringTableId_Msg_NoAchievement",
		"1035": "StringTableId_Msg_CantAddMoreEnhanceItem",
		"1036": "StringTableId_Msg_CantForge",
		"1037": "StringTableId_Msg_NoEquipmentCanBeUse",
		"1042": "StringTableId_Msg_UpdateEquipmentSucceed",
		"1044": "StringTableId_Msg_QuitApplicationOrNot",
		"1050": "StringTableId_Msg_FavorabilityLimit",
		"1051": "StringTableId_Msg_HeroFettersUnlockEventType_Life",
		"1052": "StringTableId_Msg_HeroFettersUnlockEventType_Voice",
		"1053": "StringTableId_Msg_HeroFettersUnlockEventType_Memory",
		"1054": "StringTableId_Msg_HeroFettersUnlockEventType_Fetters",
		"1055": "StringTableId_Msg_PreLevelCompleteOpen",
		"1056": "StringTableId_Msg_AchieveLevelOpen",
		"1057": "StringTableId_Msg_HeroCommentCantBeEmpty",
		"1058": "StringTableId_Msg_FetterFavorabilityLevelLimit",
		"1059": "StringTableId_Msg_TrainingNeedLevel",
		"1060": "StringTableId_Msg_NotOpenNow",
		"1061": "StringTableId_Msg_EnchantToLevel",
		"1062": "StringTableId_Msg_Like_Success",
		"1063": "StringTableId_Msg_DrillNotOpen",
		"1064": "StringTableId_Msg_AlreadyHaveThreeHero",
		"1065": "StringTableId_Msg_AlreadyInAssistant",
		"1066": "StringTableId_Msg_PlayerLevelUnlock",
		"1067": "StringTableId_Msg_LevelFinishUnlock",
		"1068": "StringTableId_Msg_PutInEnchantStone",
		"1069": "StringTableId_Msg_EnchantStoneNotEnough",
		"1070": "StringTableId_Msg_AddExpTitleTip",
		"1071": "StringTableId_Msg_AddExpContentTip",
		"1072": "StringTableId_Msg_MissionNotOpen",
		"1073": "StringTableId_Msg_OpenServiceActivityClosed",
		"1074": "StringTableId_Msg_HeroAssistantTaskStop",
		"1075": "StringTableId_Msg_ConfessionFeatureClosed",
		"1077": "StringTableId_Msg_HeroDungeonNotOpenNow",
		"1078": "StringTableId_Msg_HeroFavorabilityLimit",
		"1079": "StringTableId_Msg_EnhanceItemsHaveSR",
		"1080": "StringTableId_Msg_EnhanceItemsExpOverFlow1",
		"1081": "StringTableId_Msg_EnhanceItemsExpOverFlow2",
		"1082": "StringTableId_Msg_ChangeCrystalToTicketTip",
		"1083": "StringTableId_Msg_CrystalAndTicketNotEnoughTip",
		"1084": "StringTableId_Msg_SkinTicketNotEnough",
		"1085": "StringTableId_Msg_AllJobCanUse",
		"1086": "StringTableId_Msg_AlchemyNoticeText",
		"1087": "StringTableId_Msg_ConfirmSwitchHeroSpineSkin",
		"1088": "StringTableId_Msg_ConfirmSwitchHeroCharSkin",
		"1089": "StringTableId_Msg_BackFlowActivityClosed",
		"1090": "StringTableId_Msg_UseTicketToSummon",
		"1100": "StringTableId_Battle_SelectTarget",
		"1101": "StringTableId_Battle_SelectPosition",
		"1102": "StringTableId_Battle_ConfirmSkill",
		"1103": "StringTableId_Battle_SelectTeleport",
		"1104": "StringTableId_Battle_SkillIsCooldown",
		"1105": "StringTableId_Battle_NoBattleHero",
		"1106": "StringTableId_Battle_BattleHeroNotFull",
		"1107": "StringTableId_Battle_EndAllAction",
		"1108": "StringTableId_Battle_ConfirmExitBattle",
		"1109": "StringTableId_Battle_SkillIsBanned",
		"1110": "StringTableId_Battle_CanNotDragNPC",
		"1111": "StringTableId_Battle_CanNotDragEnforceHero",
		"1112": "StringTableId_Battle_CanNotUsePassiveSkill",
		"1113": "StringTableId_Battle_ConfirmExitArenaBattleCostTicket",
		"1114": "StringTableId_Battle_StageHeroCountMax",
		"1115": "StringTableId_Battle_ArenaAutoBattle",
		"1116": "StringTableId_Battle_ArenaAttackerGiveup",
		"1117": "StringTableId_Battle_NoStrategy",
		"1118": "StringTableId_Battle_ConfirmExitBattleCostEnergy",
		"1119": "StringTableId_Battle_ConfirmExitPVPBattleCostScore",
		"1120": "StringTableId_Battle_CanNotStageHero",
		"1121": "StringTableId_Battle_RealTimePVPPlayerGiveup",
		"1122": "StringTableId_Battle_CanNotBanProtectedHero",
		"1123": "StringTableId_Battle_Reconnect",
		"1124": "StringTableId_Battle_ConfirmExitTreasureMapBattleCostEnergy",
		"1125": "StringTableId_Battle_SelfQuitBattle",
		"1126": "StringTableId_Battle_ScoreHeroBonus",
		"1127": "StringTableId_Battle_ScoreDailyBonus",
		"1128": "StringTableId_Battle_ScoreDailyHeroBonus",
		"1129": "StringTableId_Battle_AtLeastOneHero",
		"1130": "StringTableId_Battle_ConfirmExitGuildMassiveCombatBattle",
		"1131": "StringTableId_Battle_ScoreAndGuildMassiveCombatExtraScore",
		"1132": "StringTableId_Battle_LoseUseRegret",
		"1133": "StringTableId_Battle_RuleTitle_ClimbTower",
		"1134": "StringTableId_Battle_RuleTitle_EternalShrine",
		"1135": "StringTableId_Battle_RuleDesc_EternalShrine",
		"1136": "StringTableId_Battle_SelectDirection",
		"1137": "StringTableId_Battle_GainDailyReward",
		"1138": "StringTableId_Battle_GainExtraReward",
		"1200": "StringTableId_DialogBox_Ok",
		"1201": "StringTableId_DialogBox_Cancel",
		"1300": "StringTableId_UnchartedScore_RecommendHeroDesc",
		"1301": "StringTableId_UnchartedScore_LevelComplete",
		"1302": "StringTableId_UnchartedScore_LevelOpenDay",
		"1303": "StringTableId_UnchartedScore_NeedCompletePrevLevel",
		"1304": "StringTableId_UnchartedScore_MonsterLevel",
		"1400": "StringTableId_ClimbTower_RewardPreviewDesc",
		"1401": "StringTableId_ClimbTower_RaidReachFloorMax",
		"1402": "StringTableId_ClimbTower_Flush",
		"1403": "StringTableId_ClimbTower_RaidFloor",
		"1500": "StringTableId_EternalShrine_RecommendHeroDesc",
		"1600": "StringTableId_CollectionActivity_ScenarioLevel",
		"1601": "StringTableId_CollectionActivity_ChallengeLevel",
		"1602": "StringTableId_CollectionActivity_LootLevel",
		"1603": "StringTableId_CollectionActivity_LevelOpenDay",
		"1604": "StringTableId_CollectionActivity_LevelComplete",
		"1605": "StringTableId_CollectionActivity_NeedCompletePrevLevel",
		"1606": "StringTableId_CollectionActivity_ExchangeTime",
		"1607": "StringTableId_CollectionActivity_LootLevelFirst",
		"1608": "StringTableId_CollectionActivity_NeedClearPreLevel",
		"1609": "StringTableId_CollectionActivity_NeedWaitTime",
		"1610": "StringTableId_CollectionActivity_CanNotTeamBattle",
		"2001": "StringTableId_Chat_Banned",
		"2002": "StringTableId_Chat_ChatChannelNotPermission",
		"2003": "StringTableId_Chat_PlayerNotEnoughLevel",
		"2004": "StringTableId_Chat_SendTooOften",
		"2005": "StringTableId_Chat_TimeSpanLessThanAnHour",
		"2006": "StringTableId_Chat_TimeSpanLessThanADay",
		"2007": "StringTableId_Chat_TimeSpanMoreThanADay",
		"2008": "StringTableId_Chat_MicrophoneNotFound",
		"2009": "StringTableId_Chat_UserInBlacklist",
		"2010": "StringTableId_Chat_NoIOSMicrophonePermission",
		"2011": "StringTableId_Chat_NoAndroidMicrophonePermission",
		"2012": "StringTableId_Chat_RequireJoinGuild",
		"2101": "StringTableId_Mail_IsExpired",
		"2102": "StringTableId_Mail_AttachmentHadGot",
		"2103": "StringTableId_Mail_NoMail",
		"2201": "StringTableId_AppScore_DialogBoxTips",
		"2202": "StringTableId_AppScore_EnterSuggest",
		"3001": "StringTableId_Store_ItemCount",
		"3002": "StringTableId_Store_Limit_Week",
		"3003": "StringTableId_Store_Limit_Fixed",
		"3004": "StringTableId_Store_Limit_Month",
		"3005": "StringTableId_Store_Limit_Once",
		"3006": "StringTableId_Store_TimeOut",
		"3007": "StringTableId_Store_Limit_Forever",
		"3008": "StringTableId_Store_RefreshTime",
		"3009": "StringTableId_Store_ApplePrivacyLink",
		"3010": "StringTableId_Store_AppleSubcribeCancelLink",
		"4001": "StringTableId_TrainingHouse_CoachFavorability",
		"4002": "StringTableId_TrainingHouse_InstrumentUnlockFavorability",
		"5001": "StringTableId_ClientVersionFormatString",
		"5002": "StringTableId_ConnectServerFailed",
		"5003": "StringTableId_AccountNameOrPasswordWrong",
		"5004": "StringTableId_AccountBan",
		"5005": "StringTableId_InvalidClientVersion",
		"5006": "StringTableId_DownloadAnnounceFailed",
		"5007": "StringTableId_DownloadServerListFailed",
		"5008": "StringTableId_DisconnectedByServerForCheat",
		"5009": "StringTableId_DisconnectedByServer",
		"5010": "StringTableId_PleaseUpdateClient",
		"5011": "StringTableId_DisconnectedBySameAccountLogin",
		"5020": "StringTableId_MakingBigAccount",
		"5021": "StringTableId_MakeBigAccountFinished",
		"5022": "StringTableId_ReportingBug",
		"5023": "StringTableId_ReportBugFinished",
		"6001": "StringTableId_PlayerInfo_PlayerCrystalNotEnough",
		"6002": "StringTableId_PlayerInfo_PlayerNameInvalid",
		"6003": "StringTableId_PlayerInfo_IsAlreadyTheHeadIcon",
		"6004": "StringTableId_PlayerInfo_PreviewHeadPortrait",
		"6005": "StringTableId_WillQuitAfterChangeResourceQuality",
		"6101": "StringTableId_PlayerSimpleInfo_PlayerNotOnlineCanNotPVP",
		"6102": "StringTableId_PlayerSimpleInfo_InBattleCanNotPVP",
		"6103": "StringTableId_PlayerSimpleInfo_InTeamRoomCanNotPVP",
		"7001": "StringTableId_Rift_NormalMode",
		"7002": "StringTableId_Rift_HardMode",
		"7003": "StringTableId_Rift_HardModeUnlock",
		"7004": "StringTableId_Rift_LevelUnlock",
		"7005": "StringTableId_Rift_Close",
		"7006": "StringTableId_Rift_ChapterOpen",
		"7007": "StringTableId_Raid_LackGoods",
		"7008": "StringTableId_Raid_EnoughGoods",
		"7009": "StringTableId_Raid_GainGoods",
		"9001": "StringTableId_PlayerInfo_VoicePackage",
		"9002": "StringTableId_PlayerInfo_RedeemCode",
		"9003": "StringTableId_PlayerInfo_Share",
		"9004": "StringTableId_PlayerInfo_Forum",
		"9005": "StringTableId_PlayerInfo_Version",
		"9006": "StringTableId_CanNotShareOnWindows",
		"10001": "StringTableId_TrainingHouse_AnikiGymUnlock",
		"12001": "StringTableId_Activity_LevelUpGoal",
		"12002": "StringTableId_Activity_LevelUpProgress",
		"12003": "StringTableId_Activity_AccumulateDaysGoal",
		"12004": "StringTableId_Activity_AccumulateDaysProgress",
		"12005": "StringTableId_Activity_SpecificDaysGoal",
		"12006": "StringTableId_Activity_HaveExchangeTimes",
		"12007": "StringTableId_Activity_HaveNoExchangeTimes",
		"12008": "StringTableId_Activity_ExchangeEndTime",
		"13001": "StringTableId_Ranking_HeroPowerWithoutName",
		"13002": "StringTableId_Ranking_HeroPowerWithName",
		"13003": "StringTableId_Ranking_UnReach",
		"13004": "StringTableId_BusinessCardInitialDesc",
		"13005": "StringTableId_Chat_EnterWorldRoom",
		"13006": "StringTableId_Chat_ChooseGroupTip",
		"13007": "StringTableId_Chat_ChoosePrivatePlayerTip",
		"13008": "StringTableId_Chat_VoiceRecordCountDownTip",
		"13009": "StringTableId_Chat_CurrentWorldRoom",
		"13010": "StringTableId_Chat_VoiceTranslateToTextFail",
		"13011": "StringTableId_XunfeiAppIdAndroid",
		"13012": "StringTableId_XunfeiAppIdIOS",
		"13013": "StringTableId_ClientPauseReloginTimeout",
		"13014": "StringTableId_RechargePayCancel",
		"13015": "StringTableId_RechargePayFailed",
		"13016": "StringTableId_RechargePaySuccess",
		"13017": "StringTableId_FirstBuyPresent",
		"13018": "StringTableId_ExtraBuyPresent",
		"13019": "StringTableId_Store_LeftDay",
		"13020": "StringTableId_Raffle_NotEnoughCrystal",
		"13021": "StringTableId_Raffle_NotEnoughCrystalRechargeConfirm",
		"13022": "StringTableId_Raffle_NotEnoughItem",
		"13023": "StringTableId_Raffle_Level0",
		"13024": "StringTableId_Raffle_Level1",
		"13025": "StringTableId_Raffle_Level2",
		"13026": "StringTableId_Raffle_Level3",
		"13027": "StringTableId_Raffle_Level4",
		"13028": "StringTableId_Raffle_Level5",
		"13029": "StringTableId_Raffle_Level6",
		"13030": "StringTableId_Raffle_CostTitle",
		"13031": "StringTableId_Raffle_FreeCountTitle",
		"13032": "StringTableId_Chat_AboveHistoryMessage",
		"13033": "StringTableId_Chat_InputLengthLimit",
		"13034": "StringTableId_StoreSkin_BuySuccess",
		"13035": "StringTableId_Activity_AccumulateRechargeGoal",
		"13036": "StringTableId_Activity_AccumulateRechargeProgress",
		"13037": "StringTableId_Activity_AccumulateConsumeCrystalGoal",
		"13038": "StringTableId_Activity_AccumulateConsumeCrystalProgress",
		"13039": "StringTableId_HeadIconChangeSuccess",
		"13040": "StringTableId_RechargeItemTitle",
		"13041": "StringTableId_HeroDefaultCharSkinDesc",
		"13042": "StringTableId_SoldierDefaultDesc",
		"13043": "StringTableId_SoldierDefaultPathDesc",
		"13044": "StringTableId_DefaultName",
		"13045": "StringTableId_ActivityCardPoolStopTime",
		"13046": "StringTableId_Msg_CrystalNotEnough",
		"13047": "StringTableId_Summon_LastDays",
		"13048": "StringTableId_CurrentJobCantWearSkin",
		"13049": "StringTableId_NoEnchaneItemCanAdd",
		"13050": "StringTableId_HeroNotHaveThisSoldierCantWearSkin",
		"13051": "StringTableId_Common_LessThan",
		"13052": "StringTableId_Common_Remain",
		"13054": "StringTableId_ARTeamShowTip",
		"13055": "StringTableId_CommitMemoryEssenceTip",
		"13056": "StringTableId_StillInSubscribeTime",
		"13057": "StringTableId_ExtractionFragmentNotEnough",
		"13058": "StringTableId_XunfeiAppIdWindows",
		"13059": "StringTableId_IOSPromotingPayTip",
		"13060": "StringTableId_ShareTile",
		"13061": "StringTableId_ShareContent",
		"13062": "StringTableId_ShareTitleUrl",
		"13063": "StringTableId_ShareSiteUrl",
		"13064": "StringTableId_ShareUrl",
		"13065": "StringTableId_Archive_All",
		"13066": "StringTableId_Archive_Weapon",
		"13067": "StringTableId_Archive_Armor",
		"13068": "StringTableId_Archive_Helmet",
		"13069": "StringTableId_Archive_Ornament",
		"13070": "StringTableId_Archive_Other",
		"13071": "StringTableId_Tarot_SelectCardTip",
		"14001": "StringTableId_Guild_RequireItem",
		"14002": "StringTableId_Guild_CreateGuild",
		"14003": "StringTableId_Guild_SearchNameCantNull",
		"14004": "StringTableId_Guild_GuildUnlockLevel",
		"14005": "StringTableId_Guild_SaveAnnouncementSucceed",
		"14006": "StringTableId_Guild_QuitTipTitle",
		"14007": "StringTableId_Guild_QuitTipContent",
		"14008": "StringTableId_Guild_QuitSucceed",
		"14009": "StringTableId_Guild_InviteSucceed",
		"14010": "StringTableId_Guild_ChangeNameSucceed",
		"14011": "StringTableId_Guild_TitlePresident",
		"14012": "StringTableId_Guild_TitleVP",
		"14013": "StringTableId_Guild_TitleElite",
		"14014": "StringTableId_Guild_TitleNormal",
		"14015": "StringTableId_Guild_RefreshGuildSuccess",
		"14016": "StringTableId_Guild_JoinGuildSuccess",
		"14017": "StringTableId_Guild_ApprovalByPresident",
		"14018": "StringTableId_Guild_ApprovalAuto",
		"14019": "StringTableId_Guild_SetVPSucceed",
		"14020": "StringTableId_Guild_AppointPresidentSuccess",
		"14021": "StringTableId_Guild_KickOutMemberSucceed",
		"14022": "StringTableId_Guild_RelievePresidentSucceed",
		"14023": "StringTableId_Guild_RelieveVPSucceed",
		"14024": "StringTableId_Guild_ConfirmMoveChairman",
		"14025": "StringTableId_Guild_ConfirmRemoveMember",
		"14026": "StringTableId_Guild_OnlineGuildMember",
		"14027": "StringTableId_Guild_JoinGuildCD",
		"14028": "StringTableId_Guild_GuildTeamInviteUnopen",
		"14029": "StringTableId_Guild_GuildMassiveCombatCountZero",
		"14030": "StringTableId_Guild_WaitOpenGuildMassiveCombat",
		"14031": "StringTableId_Guild_GuildMassiveCombatStrongHoldComplete",
		"14032": "StringTableId_Guild_GuildMassiveCombatPowerUpDesc",
		"14033": "StringTableId_Guild_GuildRaidLevelUnlockDesc",
		"14034": "StringTableId_Guild_MassiveCombatScoreName",
		"14035": "StringTableId_Guild_GiveUpMassiveCombat",
		"14036": "StringTableId_Guild_IntegralNameText",
		"14037": "StringTableId_Guild_IntegralDescText",
		"14038": "StringTableId_Guild_CombatIsDifferent",
		"14039": "StringTableId_Guild_ConfirmOpenMassiveCombat",
		"14040": "StringTableId_Guild_NeedJoinGuildBeforeGotoGuildStore",
		"15001": "StringTableId_Activity_Redeem_Desc0",
		"15002": "StringTableId_Activity_Redeem_Desc1",
		"15003": "StringTableId_Activity_Redeem_Desc2",
		"15004": "StringTableId_Activity_Redeem_Desc3",
		"15005": "StringTableId_Activity_Redeem_Desc4",
		"15006": "StringTableId_Activity_Redeem_Desc5",
		"15007": "StringTableId_Activity_Redeem_CostSet",
		"15008": "StringTableId_Activity_Redeem_BundleSet",
		"15009": "StringTableId_DefaultGuildAnnouncement",
		"15010": "StringTableId_DefaultGuildHiringDeclaration",
		"15011": "StringTableId_GuildAnnouncementSetNotify",
		"15012": "StringTableId_Activity_Redeem_Error",
		"15013": "StringTableId_MemoryStoreNotOpen",
		"15014": "StringTableId_SendCommentMinLevelTip",
		"15015": "StringTableId_EnchantmentPropNameStringList",
		"15016": "StringTableId_ChangeLanguageTips",
		"15017": "StringTableId_HeroHeartFetterNotOpenNow",
		"15018": "StringTableId_HeroHeartFetterUnlockConditionHeroFetterLevel",
		"15019": "StringTableId_HeroHeartFetterUnlockConditionHeroLevel",
		"15020": "StringTableId_HeroHeartFetterUnlockConditionCurrentLevel",
		"15021": "StringTableId_HeroConfessionTag_Name",
		"15022": "StringTableId_HeroConfessionTag_UnlockHeroHeartFetterTime",
		"15023": "StringTableId_HeroConfessionTag_BattleTime",
		"15024": "StringTableId_HeroConfessionTag_HeroHeartFetterLevelMaxTime",
		"15025": "StringTableId_HeroConfession_TimeYMD",
		"15026": "StringTableId_HeroConfession_AnswerUnknown",
		"15027": "StringTableId_HeroConfession_ConfirmReturn",
		"15028": "StringTableId_HeroConfession_ConfessCondition",
		"15029": "StringTableId_HeroConfession_TimeMD",
		"20000": "StringTableId_JoinGuildLogId",
		"20001": "StringTableId_QuitGuildLogId",
		"20002": "StringTableId_KickOutGuildLogId",
		"20003": "StringTableId_ChangeGuildNameLogId",
		"20004": "StringTableId_AppointGuildVpLogId",
		"20005": "StringTableId_RelieveGuildVpLogId",
		"20006": "StringTableId_UpToEliteLogId",
		"20007": "StringTableId_AppointPresidentLogId",
		"20008": "StringTableId_RelievePresidentLogId",
		"20009": "StringTableId_BuyUnionStoreGoodsLogId",
		"20010": "StringTableId_JoinGuildAnnouncementId",
		"20011": "StringTableId_KickOutGuildAnnouncementId",
		"20012": "StringTableId_AppointGuildVpAnnouncementId",
		"20013": "StringTableId_RelieveGuildVpAnnouncementId",
		"20014": "StringTableId_UpToEliteAnnouncementId",
		"20015": "StringTableId_AppointPresidentAnnouncementId",
		"20016": "StringTableId_CreateGuildLogId",
		"20017": "StringTableId_ChangeGuildAnnouncementLogId",
		"20018": "StringTableId_GuildMassiveCombatStart",
		"20019": "StringTableId_GuildMassiveCombatSurrender",
		"20020": "StringTableId_GuildMassiveCombatStrongholdTaken",
		"20100": "StringTableId_Chat_TranslateTipMsg",
		"20101": "StringTableId_Chat_TranslateTipOriginalWord",
		"115017": "StringTableId_ChangeLanguageVoiceTips"
	},
	"TechDisplayType": {
		"0": "TechDisplayType_None",
		"1": "TechDisplayType_SoldierTypeLevelUp",
		"2": "TechDisplayType_SoldierLevelUp",
		"3": "TechDisplayType_SkillLevelUp"
	},
	"TrackType": {
		"0": "TrackType_None",
		"1": "TrackType_Parabolic",
		"2": "TrackType_Straight",
		"3": "TrackType_DownStraight",
		"4": "TrackType_UpStraight"
	},
	"UserGuideAction": {
		"0": "UserGuideAction_",
		"1": "UserGuideAction_Click",
		"2": "UserGuideAction_ShowSignOn",
		"3": "UserGuideAction_EndStep",
		"4": "UserGuideAction_MoveWorldCameraTo",
		"5": "UserGuideAction_MoveBattleCameraTo",
		"6": "UserGuideAction_ClickBattleGrid",
		"7": "UserGuideAction_TemporaryDisableObject",
		"8": "UserGuideAction_TemporaryDeactiveObject",
		"9": "UserGuideAction_ScrollToItem",
		"10": "UserGuideAction_WaitSeconds",
		"11": "UserGuideAction_WaitObjectClickable",
		"12": "UserGuideAction_TemporaryDisableMoveBattleCamera",
		"13": "UserGuideAction_FinishUserGuide",
		"14": "UserGuideAction_EnableMoveBattleCamera",
		"15": "UserGuideAction_EnableInput",
		"16": "UserGuideAction_ShowActivityNotice",
		"17": "UserGuideAction_IfSeflActiveThenGoto",
		"18": "UserGuideAction_Trigger"
	},
	"UserGuideCondition": {
		"0": "UserGuideCondition_",
		"1": "UserGuideCondition_StoryNFinished",
		"2": "UserGuideCondition_TodayIsSignedEqual",
		"3": "UserGuideCondition_GuideNFinished",
		"4": "UserGuideCondition_RiftChapterNUnlockable",
		"5": "UserGuideCondition_RiftLevelNPassed",
		"6": "UserGuideCondition_EventNHappened",
		"7": "UserGuideCondition_IsRunningBattleN",
		"8": "UserGuideCondition_IsWayPointNArrived",
		"9": "UserGuideCondition_IsHeroNComposable",
		"10": "UserGuideCondition_GuideNFinishedAndMNotFinished",
		"11": "UserGuideCondition_NeverOpenedActivityNoticeAndPlayerLevelReachN",
		"12": "UserGuideCondition_PlayerLevelReachN",
		"13": "UserGuideCondition_GuideNUnfinished"
	},
	"UserGuideTrigger": {
		"0": "UserGuideTrigger_",
		"1": "UserGuideTrigger_ShowObject",
		"2": "UserGuideTrigger_FinishGuideStepN",
		"3": "UserGuideTrigger_HideObject",
		"4": "UserGuideTrigger_EndUIState",
		"5": "UserGuideTrigger_SelectBattleHeroN",
		"6": "UserGuideTrigger_DeselectBattleHeroN",
		"7": "UserGuideTrigger_FinishUserGuideN",
		"8": "UserGuideTrigger_WorldUIGetReady",
		"9": "UserGuideTrigger_BuyGiftStoreGoodsN"
	},
	"VersionInfoId": {
		"1": "VersionInfoId_ClientProgram",
		"2": "VersionInfoId_AssetBundle",
		"3": "VersionInfoId_BattleReport"
	},
	"WaypointFuncType": {
		"0": "WaypointFuncType_None",
		"1": "WaypointFuncType_Scenario",
		"2": "WaypointFuncType_Portal",
		"3": "WaypointFuncType_Event"
	},
	"WaypointStyleType": {
		"0": "WaypointStyleType_None",
		"1": "WaypointStyleType_Forest",
		"2": "WaypointStyleType_Mountain",
		"3": "WaypointStyleType_Cave",
		"4": "WaypointStyleType_Village"
	}
}